<?xml version="1.0" encoding="utf-8"?>
<!-- Generator: Adobe Illustrator 17.0.0, SVG Export Plug-In . SVG Version: 6.00 Build 0)  -->
<!DOCTYPE svg PUBLIC "-//W3C//DTD SVG 1.1//EN" "http://www.w3.org/Graphics/SVG/1.1/DTD/svg11.dtd">
<svg version="1.1" id="Camada_1" xmlns="http://www.w3.org/2000/svg" xmlns:xlink="http://www.w3.org/1999/xlink" x="0px" y="0px"
	 width="44px" height="44px" viewBox="0 0 44 44" enable-background="new 0 0 44 44" xml:space="preserve">
<g>
	<path fill-rule="evenodd" clip-rule="evenodd" fill="#001D7E" d="M120.057-17.101l24.944,0.015c3.915,0,7.142,3.226,7.127,7.156
		v24.944c0,3.93-3.226,7.142-7.156,7.142l-24.959-0.015c-3.93-0.015-7.142-3.226-7.142-7.156l0.029-24.944
		C112.901-13.89,116.112-17.116,120.057-17.101L120.057-17.101z"/>
	<path fill-rule="evenodd" clip-rule="evenodd" fill="#FEEE00" d="M146.6,0.804h-2.845l-1.173,2.229h1.994L146.6,0.804L146.6,0.804z
		 M148.492,4.426h-2.772v5.983c0,1.833-1.232,2.361-2.141,2.361c-0.865,0-1.818-0.323-1.804-1.921V4.426h-2.772l-0.015,6.819
		c0,2.64,1.51,3.813,3.593,3.813c1.452,0.015,2.581-0.616,3.212-1.73h0.029v1.452h2.669V4.426L148.492,4.426z"/>
	<path fill-rule="evenodd" clip-rule="evenodd" fill="#FEEE00" d="M136.833,7.168c0-2.566-2.698-3.021-4.194-3.021
		c-2.156,0-4.399,0.455-4.737,3.622h2.684c0.088-0.601,0.337-1.437,1.716-1.437c0.719,0,1.833,0.059,1.833,1.202
		c0,0.587-0.543,0.763-0.983,0.821l-2.493,0.367c-1.774,0.249-3.094,1.29-3.094,3.314c0,2.141,1.642,3.021,3.212,3.021
		c1.906,0,2.801-0.865,3.417-1.496c0.059,0.572,0.103,0.719,0.264,1.217l2.39-0.015c0-1.144-0.015-1.98-0.015-1.994V7.168
		L136.833,7.168z"/>
	<path fill-rule="evenodd" clip-rule="evenodd" fill="#FEEE00" d="M125.014,0.804h-2.772v3.607h-1.437v1.95h1.422v6.291
		c0,1.334,0.425,2.244,2.83,2.244h0.367c0.44,0,0.88-0.029,1.305-0.044v-2.068c-0.191,0.015-0.396,0.044-0.572,0.044
		c-1.129,0-1.159-0.235-1.159-0.851l0.015-5.617h1.73v-1.95h-1.73V0.804L125.014,0.804z"/>
	<polygon fill-rule="evenodd" clip-rule="evenodd" fill="#FEEE00" points="119.529,0.789 116.538,0.789 116.523,14.764 
		119.515,14.764 119.529,0.789 	"/>
	<path fill-rule="evenodd" clip-rule="evenodd" fill="#001D7E" d="M134.135,11.069V9.735c-0.279,0.22-0.748,0.396-1.892,0.557
		c-1.041,0.176-1.892,0.44-1.892,1.569c0,0.939,0.763,1.246,1.29,1.246C132.874,13.107,134.135,12.33,134.135,11.069L134.135,11.069
		z"/>
</g>
<path fill-rule="evenodd" clip-rule="evenodd" fill="#909191" d="M65.238-23.095l25.416,0.015c3.99,0,7.277,3.287,7.262,7.292V9.628
	c0,4.004-3.287,7.277-7.292,7.277L65.193,16.89c-4.004-0.015-7.277-3.287-7.277-7.292l0.03-25.416
	C57.947-19.823,61.219-23.11,65.238-23.095L65.238-23.095z"/>
<path fill-rule="evenodd" clip-rule="evenodd" fill="#FFFFFF" d="M92.283-4.851h-2.899L88.189-2.58h2.032L92.283-4.851L92.283-4.851
	z M94.211-1.16h-2.824v6.096c0,1.868-1.255,2.406-2.182,2.406c-0.882,0-1.853-0.329-1.838-1.957V-1.16h-2.824l-0.015,6.948
	c0,2.69,1.539,3.885,3.661,3.885c1.479,0.015,2.63-0.628,3.272-1.763h0.03v1.479h2.719V-1.16L94.211-1.16z"/>
<path fill-rule="evenodd" clip-rule="evenodd" fill="#FFFFFF" d="M82.332,1.634c0-2.615-2.749-3.078-4.273-3.078
	c-2.196,0-4.483,0.463-4.826,3.691h2.734c0.09-0.613,0.344-1.464,1.748-1.464c0.732,0,1.868,0.06,1.868,1.225
	c0,0.598-0.553,0.777-1.001,0.837l-2.54,0.374c-1.808,0.254-3.153,1.315-3.153,3.377c0,2.182,1.673,3.078,3.272,3.078
	c1.942,0,2.854-0.882,3.481-1.524c0.06,0.583,0.105,0.732,0.269,1.24l2.436-0.015c0-1.165-0.015-2.017-0.015-2.032V1.634
	L82.332,1.634z"/>
<path fill-rule="evenodd" clip-rule="evenodd" fill="#FFFFFF" d="M70.289-4.851h-2.824v3.676H66v1.987h1.449v6.41
	c0,1.36,0.433,2.286,2.884,2.286h0.374c0.448,0,0.897-0.03,1.33-0.045V7.357c-0.194,0.015-0.403,0.045-0.583,0.045
	c-1.151,0-1.18-0.239-1.18-0.867l0.015-5.723h1.763v-1.987h-1.763V-4.851L70.289-4.851z"/>
<polygon fill-rule="evenodd" clip-rule="evenodd" fill="#FFFFFF" points="64.7,-4.866 61.652,-4.866 61.637,9.374 64.685,9.374 
	64.7,-4.866 "/>
<path fill-rule="evenodd" clip-rule="evenodd" fill="#909191" d="M79.583,5.609v-1.36c-0.284,0.224-0.762,0.403-1.928,0.568
	c-1.061,0.179-1.928,0.448-1.928,1.599c0,0.956,0.777,1.27,1.315,1.27C78.298,7.686,79.583,6.894,79.583,5.609L79.583,5.609z"/>
<g>
	<path fill-rule="evenodd" clip-rule="evenodd" fill="#909191" d="M-50.525,72.248l-1.202,2.995h1.663l-0.456-3.008L-50.525,72.248
		L-50.525,72.248z M-56.892,79.123l4.931-10.15h3.727l2.079,10.15h-3.273l-0.241-1.353h-3.175l-0.731,1.353H-56.892L-56.892,79.123z
		 M-44.607,79.123l1.428-10.15h3.298l-1.428,10.15H-44.607L-44.607,79.123z M-22.676,72.235l-1.207,3.008h1.663L-22.676,72.235
		L-22.676,72.235z M-29.048,79.123l4.931-10.15h3.727l2.079,10.15h-3.273l-0.241-1.353H-25l-0.731,1.353H-29.048L-29.048,79.123z"/>
	<polygon fill-rule="evenodd" clip-rule="evenodd" fill="#909191" points="-36.338,74.376 -32.206,74.376 -29.375,79.066 
		-33.507,79.066 -36.338,74.376 	"/>
	<polygon fill-rule="evenodd" clip-rule="evenodd" fill="#5B5959" points="-35.908,73.656 -31.638,73.656 -27.929,68.987 
		-32.199,68.987 -35.908,73.656 	"/>
	<polygon fill-rule="evenodd" clip-rule="evenodd" fill="#5B5959" points="-40.179,79.094 -35.908,79.094 -32.199,74.368 
		-36.47,74.368 -40.179,79.094 	"/>
	<polygon fill-rule="evenodd" clip-rule="evenodd" fill="#909191" points="-38.639,68.93 -34.653,68.93 -31.922,73.656 
		-35.908,73.656 -38.639,68.93 	"/>
	<path fill-rule="evenodd" clip-rule="evenodd" fill="#909191" d="M-56.794,69.336l-0.317,2.985
		c-1.215-1.677-4.032-0.52-4.254,1.569c-0.281,2.651,2.43,3.269,3.905,1.708l-0.318,2.992c-0.44,0.217-0.871,0.384-1.296,0.498
		c-0.423,0.114-0.846,0.174-1.267,0.183c-0.528,0.011-1.007-0.044-1.438-0.166c-0.432-0.119-0.822-0.309-1.167-0.565
		c-0.666-0.487-1.148-1.106-1.445-1.86c-0.297-0.756-0.394-1.609-0.293-2.562c0.081-0.766,0.275-1.465,0.582-2.098
		c0.305-0.633,0.727-1.208,1.265-1.73c0.508-0.498,1.062-0.873,1.661-1.128c0.597-0.253,1.248-0.387,1.952-0.402
		c0.42-0.009,0.833,0.034,1.233,0.13C-57.587,68.987-57.19,69.137-56.794,69.336L-56.794,69.336z"/>
</g>
<path fill-rule="evenodd" clip-rule="evenodd" fill="#FEEE00" d="M9.322,2.527l25.416,0.015c3.99,0,7.277,3.287,7.262,7.292V35.25
	c0,4.004-3.287,7.277-7.292,7.277L9.277,42.512C5.272,42.497,2,39.225,2,35.22L2.03,9.804C2.03,5.799,5.302,2.512,9.322,2.527
	L9.322,2.527z"/>
<path fill-rule="evenodd" clip-rule="evenodd" fill="#005A9F" d="M5,33.916l3.483-2.321l3.482,2.321L5,38.559V33.916L5,33.916
	L5,33.916z M38.43,9.773l-3.482,2.321l-3.482-2.321L38.43,5.13V9.773L38.43,9.773L38.43,9.773z M38.43,27.416L21.715,38.559
	L5,27.416l19.849-13.233l3.482,2.322L12.313,27.183l9.75,6.501l4.527-3.018l-3.482-2.321l8.357-5.572L38.43,27.416L38.43,27.416
	L38.43,27.416z M5,16.273L21.715,5.129L38.43,16.273L18.581,29.505l-3.482-2.322l16.018-10.679l-9.75-6.5l-4.527,3.018l3.483,2.321
	l-8.357,5.572L5,16.273L5,16.273L5,16.273z"/>
<g>
	<path fill-rule="evenodd" clip-rule="evenodd" fill="#0069A7" d="M-65.861,40.397l-1.09,2.715h1.508l-0.413-2.727L-65.861,40.397
		L-65.861,40.397z M-71.634,46.63l4.47-9.203h3.379l1.885,9.203h-2.967l-0.218-1.226h-2.879l-0.662,1.226H-71.634L-71.634,46.63z
		 M-60.495,46.63l1.295-9.203h2.99l-1.295,9.203H-60.495L-60.495,46.63z M-40.612,40.386l-1.094,2.727h1.508L-40.612,40.386
		L-40.612,40.386z M-46.389,46.63l4.47-9.203h3.379l1.885,9.203h-2.967l-0.218-1.226h-2.879l-0.662,1.226H-46.389L-46.389,46.63z"/>
	<polygon fill-rule="evenodd" clip-rule="evenodd" fill="#0069A7" points="-52.998,42.327 -49.252,42.327 -46.686,46.578 
		-50.432,46.578 -52.998,42.327 	"/>
	<polygon fill-rule="evenodd" clip-rule="evenodd" fill="#D68628" points="-52.609,41.674 -48.737,41.674 -45.374,37.441 
		-49.246,37.441 -52.609,41.674 	"/>
	<polygon fill-rule="evenodd" clip-rule="evenodd" fill="#D68628" points="-56.481,46.604 -52.609,46.604 -49.246,42.319 
		-53.118,42.319 -56.481,46.604 	"/>
	<polygon fill-rule="evenodd" clip-rule="evenodd" fill="#0069A7" points="-55.085,37.389 -51.471,37.389 -48.995,41.674 
		-52.609,41.674 -55.085,37.389 	"/>
	<path fill-rule="evenodd" clip-rule="evenodd" fill="#0069A7" d="M-71.545,37.757l-0.287,2.706
		c-1.102-1.52-3.656-0.471-3.856,1.422c-0.255,2.404,2.203,2.964,3.541,1.549l-0.288,2.713c-0.399,0.196-0.79,0.348-1.175,0.452
		c-0.383,0.103-0.767,0.158-1.148,0.166c-0.479,0.01-0.913-0.04-1.304-0.15c-0.391-0.108-0.745-0.28-1.058-0.512
		c-0.604-0.442-1.041-1.003-1.31-1.686c-0.269-0.685-0.358-1.459-0.266-2.323c0.074-0.695,0.249-1.328,0.528-1.902
		c0.276-0.574,0.659-1.096,1.147-1.569c0.461-0.451,0.963-0.791,1.506-1.023c0.541-0.229,1.132-0.351,1.77-0.365
		c0.381-0.008,0.755,0.031,1.118,0.118C-72.264,37.441-71.904,37.577-71.545,37.757L-71.545,37.757z"/>
</g>
<g>
	<path fill="#BA0038" d="M-31.918,2.527h-31.245c0,0-8.755,0-8.755-8.756v-31.244h31.245c0,0,8.755,0,8.755,8.755V2.527
		L-31.918,2.527z"/>
	<polygon fill="#FFFFFF" points="-53.723,-3.095 -55.692,-3.095 -55.692,-13.186 -53.723,-13.186 -53.723,-3.095 	"/>
	<polygon fill="#FFFFFF" points="-48.706,-3.095 -51.931,-3.095 -51.931,-16.946 -48.706,-16.946 -48.706,-3.095 	"/>
	<path fill="#FFFFFF" d="M-57.459-26.593c0,0,3.252-3.179,8.733-2.133c0,0,2.411,0.375,4.26,2.017c0,0,0.275,0.257,0.487,0.046
		c0,0,0.268-0.21-0.031-0.525c0,0-1.589-2.204-4.727-3.179c0,0-4.309-1.543-8.737,0.542c0,0-2.725,1.129-4.236,4.207
		c0,0-2.155,0.696-3.77,1.603c0,0-0.478,0.188-0.297,0.56c0,0,0.154,0.266,0.572,0.068c0,0,1.5-0.517,2.946-0.84
		c0,0-1.163,3.016,0.051,6.758c0.541,1.667,1.527,3.364,3.033,4.727c0,0,0.245,0.258,0.513,0.082c0,0,0.232-0.169,0.069-0.445
		c0,0-1.202-1.809-1.669-4.38c-0.389-2.098-0.205-4.994,1.251-7.29c0,0,5.546-0.774,10.273,1.006c0,0,8.03,2.62,6.008,7.479
		c0,0-0.588,1.689-2.804,3.215c0,0-0.372,0.217-0.17,0.527c0,0,0.167,0.242,0.547,0.087c0,0,3.394-1.105,4.859-3.832
		c0,0,2.972-4.547-4.035-8.257c0,0-1.927-1.03-4.405-1.58C-48.737-26.131-53.199-27.235-57.459-26.593"/>
</g>
<g>
	<path d="M-73.288,32.958v-2.545c0-0.331-0.172-0.697-1.005-0.697v-0.217h3.173v0.217c-0.833,0-1.004,0.366-1.004,0.697v5.73
		c0,0.331,0.171,0.696,1.004,0.696v0.217h-3.173v-0.217c0.834,0,1.005-0.366,1.005-0.696v-2.717h-3.459v2.717
		c0,0.331,0.171,0.696,1.005,0.696v0.217h-3.173v-0.217c0.833,0,1.005-0.366,1.005-0.696v-5.73c0-0.331-0.171-0.697-1.005-0.697
		v-0.217h3.173v0.217c-0.834,0-1.005,0.366-1.005,0.697v2.545H-73.288"/>
	<path d="M-70.853,34.762h0.262c0.354,1.062,1.153,2.021,2.363,2.021c0.924,0,1.552-0.8,1.29-1.69
		c-0.469-1.598-3.584-1.667-3.584-3.846c0-1.13,0.901-1.907,2.02-1.907c1.21,0,1.757,0.845,2.032,0h0.239l0.251,2.432h-0.285
		c-0.263-1.062-1.016-1.963-2.078-1.963c-0.685,0-1.198,0.376-1.198,1.096c0,0.661,0.719,1.129,1.21,1.426
		c1.552,0.936,2.602,1.427,2.602,2.797c0,1.028-0.856,2.089-2.407,2.089c-1.187,0-2.009-0.832-2.124,0h-0.251L-70.853,34.762"/>
	<path d="M-61.955,32.879c1.152,0,1.826-0.491,1.826-1.415c0-0.868-0.548-1.336-1.347-1.484c-1.05-0.069-1.416-0.091-1.416,0.308
		v2.591H-61.955 M-62.891,36.029c0,0.4,0.103,0.605,0.936,0.605c1.187,0,2.066-0.354,2.066-1.689c0-1.358-1.359-1.61-2.432-1.61
		h-0.571V36.029z M-64.055,30.413c0-0.331-0.171-0.697-1.095-0.697v-0.217h3.058c1.758,0,3.128,0.468,3.128,1.93
		c0,0.958-0.64,1.449-1.518,1.644v0.023c0.981,0.182,1.905,0.787,1.905,1.883c0,1.37-1.186,2.077-2.979,2.077h-3.595v-0.217
		c0.924,0,1.095-0.366,1.095-0.696V30.413z"/>
	<path d="M-51.726,31.85H-52c-0.331-1.256-1.164-2.112-2.466-2.112c-1.883,0-2.693,1.518-2.693,3.572
		c0,1.598,0.833,3.321,2.705,3.321c1.119,0,1.883-0.365,2.671-1.141l0.194,0.228c-0.696,0.856-1.872,1.427-2.968,1.427
		c-2.226,0-3.926-1.427-3.926-3.927c0-2.271,1.609-3.95,3.904-3.95c1.563,0,2.134,0.937,2.512,0.012h0.239L-51.726,31.85"/>
	<rect x="-45.561" y="29.294" fill="#FFFFFF" width="7.677" height="7.677"/>
	<polyline fill="#C43A0D" points="-45.561,29.288 -37.884,29.288 -41.723,33.126 -45.561,29.288 	"/>
	<polyline fill="#C43A0D" points="-45.561,36.965 -37.884,36.965 -41.723,33.126 -45.561,36.965 	"/>
	<polyline fill="#C43A0D" points="-45.561,29.288 -45.561,36.965 -49.4,33.126 -45.561,29.288 	"/>
	<polyline fill="#C43A0D" points="-37.884,29.288 -37.884,36.965 -34.046,33.126 -37.884,29.288 	"/>
</g>
<path fill-rule="evenodd" clip-rule="evenodd" fill="#909191" d="M6.231-45.962l25.416,0.015c3.99,0,7.277,3.287,7.262,7.292v25.416
	c0,4.004-3.287,7.277-7.292,7.277L6.186-5.977C2.182-5.992-1.09-9.265-1.09-13.269l0.03-25.416
	C-1.061-42.69,2.212-45.977,6.231-45.962L6.231-45.962z"/>
<path fill="#FFFFFF" d="M19.371-11.022c9.059,0,16.448-3.677,16.448-8.182c0-3.295-3.955-6.146-9.622-7.441
	c-0.034-0.831,0.068-2.061-0.536-3.416c-0.879-1.98-2.818-4.189-4.388-6.37c-1.565-2.171-1.205-3.788-1.298-4.473
	c-0.695,0.434-2.424,2.25-1.549,5.346c0.868,3.07,4.099,6.458,5.096,8.221c0.997,1.766,0.831,3.38,0.545,4.376
	c-0.286,0.995-0.826,1.403-1.27,1.688c0.03-0.661,0.007-1.556-0.398-2.515c-0.406-0.958-2.371-3.248-3.802-4.934
	c-1.427-1.685-2.814-4.211-2.19-6.221c-0.616,0.375-1.932,2.025-1.86,3.949c0.067,1.924,1.67,4.532,2.659,5.766
	c0.991,1.233,2.713,3.702,3.053,5.063c0.339,1.359,0.218,2.331-0.074,3.033c-0.244,0.583-1.068,1.239-1.068,1.239
	s0.074-0.948-0.266-1.675c-0.339-0.728-4.275-6.068-4.662-6.627c-0.355-0.511-1.277-1.568-1.227-2.543
	c-5.891,1.247-10.038,4.158-10.038,7.533C2.924-14.699,10.312-11.022,19.371-11.022L19.371-11.022z"/>
</svg>
