<?xml version="1.0" encoding="utf-8"?>
<!-- Generator: Adobe Illustrator 17.0.0, SVG Export Plug-In . SVG Version: 6.00 Build 0)  -->
<!DOCTYPE svg PUBLIC "-//W3C//DTD SVG 1.1//EN" "http://www.w3.org/Graphics/SVG/1.1/DTD/svg11.dtd">
<svg version="1.1" id="Camada_1" xmlns="http://www.w3.org/2000/svg" xmlns:xlink="http://www.w3.org/1999/xlink" x="0px" y="0px"
	 width="50px" height="36.75px" viewBox="0 0 50 36.75" enable-background="new 0 0 50 36.75" xml:space="preserve">
<path fill="none" d="M-51.17-14.03h50.78v50.78h-50.78V-14.03z"/>
<path fill="#DDDDDD" d="M36.286,18.87c3.461,0,6.245-2.809,6.245-6.27s-2.784-6.27-6.245-6.27c-3.461,0-6.27,2.809-6.27,6.27
	S32.825,18.87,36.286,18.87z M17.476,16.362c4.163,0,7.499-3.361,7.499-7.524s-3.336-7.524-7.499-7.524S9.952,4.675,9.952,8.838
	S13.313,16.362,17.476,16.362z M36.286,23.886c-4.589,0-13.794,2.307-13.794,6.897v5.643h27.587v-5.643
	C50.079,26.193,40.875,23.886,36.286,23.886z M17.476,21.378c-5.843,0-17.555,2.934-17.555,8.778v6.27h17.555v-5.643
	c0-2.132,0.828-5.869,5.944-8.702C21.238,21.629,19.131,21.378,17.476,21.378z"/>
<path opacity="0.5" fill="#DDDDDD" d="M-20.774-12.744h-19.668c-2.704,0-4.892,2.213-4.892,4.917l-0.025,39.335
	c0,2.704,2.188,4.917,4.892,4.917h29.526c2.704,0,4.917-2.213,4.917-4.917V2.007L-20.774-12.744z M-15.857,26.592h-19.668v-4.917
	h19.668V26.592z M-15.857,16.758h-19.668v-4.917h19.668V16.758z M-23.233,4.465V-9.056L-9.711,4.465H-23.233z"/>
</svg>
