<?xml version="1.0" encoding="utf-8"?>
<!-- Generator: Adobe Illustrator 17.0.0, SVG Export Plug-In . SVG Version: 6.00 Build 0)  -->
<!DOCTYPE svg PUBLIC "-//W3C//DTD SVG 1.1//EN" "http://www.w3.org/Graphics/SVG/1.1/DTD/svg11.dtd">
<svg version="1.1" id="Camada_1" xmlns="http://www.w3.org/2000/svg" xmlns:xlink="http://www.w3.org/1999/xlink" x="0px" y="0px"
	 width="344px" height="86px" viewBox="0 0 344 86" enable-background="new 0 0 344 86" xml:space="preserve">
<circle fill="none" stroke="#FFFFFF" stroke-miterlimit="10" cx="38.672" cy="40.074" r="19.915"/>
<path fill="#FFFFFF" d="M39.251,42.529c0,0-16.721-14.391-1.499-38.863c0,0,24.522,16.909,4.707,38.217
	c0,0-3.244-14.286-2.122-20.764C40.338,21.118,36.551,35.569,39.251,42.529"/>
<path fill="#FFFFFF" d="M33.72,44.705c0,0-18.737,5.919-30.135-17.078c0,0,24.297-10.646,31.147,14.345
	c0,0-12.338-4.243-16.716-8.126C18.016,33.846,27.185,43.489,33.72,44.705"/>
<path fill="#FFFFFF" d="M30.49,50.749c0,0-5.981,11.222-21.669,5.757c0,0,6.408-15.928,20.898-7.482c0,0-7.626,3.633-11.411,3.822
	C18.307,52.846,26.913,53.149,30.49,50.749"/>
<path fill="#FFFFFF" d="M53.026,49.971c0,0,7.23-5.251,15.456,3.033c0,0-8.948,8.086-15.496-1.707c0,0,5.934,0.055,8.38,1.102
	C61.367,52.399,56.02,49.554,53.026,49.971"/>
<path fill="#FFFFFF" d="M44.769,44.661c0,0,2.025-19.254,27.284-20.501c0,0,0.055,26.133-25.211,22.489
	c0,0,8.685-9.474,13.916-11.902C60.758,34.747,48.438,39.239,44.769,44.661"/>
<path fill="#FFFFFF" d="M47.791,77.837c0,0-3.055-12.403-0.839-19.881c2.222-7.477,5.483-9.02,5.194-10.168
	c-0.289-1.146-1.933-0.622-2.476,0.43c-0.55,1.052-2.74,3.311-4.685,2.924c-1.955-0.386-2.303-7.523-3.721-8.249
	c-1.414-0.728-0.995,2.573-0.509,5.439c0.484,2.862-2.222,1.243-3.848-2.2c-1.628-3.441-2.652-2.448-2.853-1.968
	c-0.204,0.484,3.598,6.638,3.3,6.927c-0.302,0.289-5.124-4.828-5.61-4.688c-0.482,0.14-1.315,0.531-0.173,2.143
	c1.146,1.609,4.791,4.326,4.547,4.773c-0.25,0.447-3.263-2.027-4.379-2.095c-1.122-0.068-0.697,1.335,1.28,2.632
	c1.977,1.295,6.855,2.735,6.894,7.55c0.039,4.823-1.276,16.477-1.276,16.477"/>
<path fill="#FFFFFF" d="M75.059,80.454c0,0-39.51-5.487-63.381,1.92C11.678,82.374,38.296,67.281,75.059,80.454"/>
<g>
	<g>
		<path fill="#FFFFFF" d="M88.388,33.134l-0.213-1.541c-0.071-0.498-0.106-0.778-0.106-0.838c0-0.151,0.113-0.279,0.341-0.385
			l3.841-1.79c0.061-0.03,0.129-0.046,0.204-0.046c0.212,0,0.348,0.136,0.41,0.406l6.145,30.755c0.106,0.559,0.238,0.96,0.397,1.202
			c0.158,0.243,0.465,0.499,0.918,0.771c0.348,0.212,0.522,0.454,0.522,0.726v0.998c0,0.363-0.144,0.544-0.431,0.544h-7.574
			c-0.408,0-0.613-0.181-0.613-0.545v-0.998c0-0.348,0.243-0.643,0.73-0.885c0.592-0.317,0.889-0.749,0.889-1.293
			c0-0.151-0.016-0.325-0.046-0.522l-0.948-4.738H86.93l-0.948,4.561c-0.046,0.196-0.068,0.34-0.068,0.431
			c0,0.453,0.338,0.952,1.014,1.496c0.435,0.363,0.653,0.681,0.653,0.952v0.997c0,0.363-0.219,0.544-0.658,0.544h-4.74
			c-0.529,0-0.793-0.181-0.793-0.544v-1.179c0-0.318,0.166-0.575,0.499-0.771c0.62-0.378,1.028-1.021,1.225-1.928L88.388,33.134z
			 M89.951,40.419L87.58,52.053h4.697L89.951,40.419z"/>
		<path fill="#FFFFFF" d="M111.484,42.981c1.043-1.058,1.98-1.588,2.812-1.588c0.528,0,0.99,0.156,1.383,0.465
			c0.393,0.31,0.59,0.714,0.59,1.213c0,0.892-0.446,1.338-1.338,1.338c-0.287,0-0.612-0.098-0.975-0.295
			c-0.287-0.151-0.492-0.227-0.613-0.227c-0.242,0-0.484,0.068-0.725,0.204c1.119,1.558,1.679,3.274,1.679,5.148
			c0,2.359-0.515,4.233-1.543,5.625c-1.028,1.391-2.466,2.086-4.312,2.086c-0.484,0-1.081-0.06-1.793-0.181l-1.154,2.88h2.087
			c5.187,0,7.781,1.792,7.781,5.375c0,1.844-0.692,3.292-2.075,4.343s-3.194,1.576-5.432,1.576c-1.784,0-3.186-0.31-4.207-0.93
			c-1.02-0.62-1.53-1.459-1.53-2.517c0-0.605,0.196-1.108,0.59-1.509c0.393-0.401,0.907-0.601,1.542-0.601
			c0.59,0,1.085,0.173,1.486,0.522c0.4,0.347,0.601,0.786,0.601,1.315c0,0.317-0.106,0.681-0.317,1.089
			c0.725,0.347,1.474,0.521,2.245,0.521c0.983,0,1.826-0.257,2.529-0.771c0.703-0.514,1.054-1.149,1.054-1.905
			c0-1.633-1.799-2.45-5.398-2.45c-0.725,0-1.602,0.023-2.63,0.068c-0.53,0.031-0.922,0.046-1.179,0.046
			c-0.484,0-0.726-0.143-0.726-0.431c0-0.212,0.113-0.613,0.34-1.202l2.517-6.282c-1.694-1.466-2.54-3.583-2.54-6.35
			c0-2.162,0.495-3.949,1.485-5.364c0.99-1.414,2.506-2.12,4.547-2.12C109.473,42.074,110.547,42.377,111.484,42.981z
			 M108.241,54.933c0.635,0,1.073-0.355,1.315-1.066c0.242-0.711,0.363-2.079,0.363-4.105c0-2.314-0.121-3.837-0.363-4.57
			c-0.242-0.733-0.65-1.1-1.225-1.1c-0.756,0-1.232,0.544-1.429,1.633c-0.197,1.088-0.295,2.729-0.295,4.922
			c0,1.542,0.121,2.642,0.363,3.299C107.213,54.605,107.636,54.933,108.241,54.933z"/>
		<path fill="#FFFFFF" d="M122.098,47.132c0.998-3.25,2.397-4.876,4.196-4.876c0.725,0,1.296,0.249,1.712,0.749
			c0.416,0.499,0.624,1.088,0.624,1.769c0,0.68-0.196,1.259-0.59,1.735c-0.393,0.476-0.907,0.714-1.542,0.714
			c-0.696,0-1.331-0.342-1.905-1.026c-1.089,1.74-1.633,3.819-1.633,6.239v7.713c0,0.681,0.287,1.294,0.862,1.838
			c0.241,0.212,0.363,0.37,0.363,0.476v1.134c0,0.227-0.099,0.34-0.295,0.34h-6.191c-0.182,0-0.272-0.075-0.272-0.227v-1.406
			c0-0.136,0.105-0.249,0.317-0.34c0.484-0.226,0.726-0.658,0.726-1.293V46.678c0-0.801-0.25-1.459-0.749-1.973
			c-0.197-0.212-0.295-0.378-0.295-0.499v-1.111c0-0.302,0.211-0.461,0.635-0.476l4.036-0.068V47.132z"/>
		<path fill="#FFFFFF" d="M135.251,42.55v17.781c0,0.786,0.325,1.346,0.975,1.678c0.272,0.151,0.408,0.371,0.408,0.658v0.84
			c0,0.287-0.166,0.431-0.499,0.431h-6.259c-0.333,0-0.499-0.143-0.499-0.431v-0.84c0-0.302,0.143-0.522,0.431-0.658
			c0.635-0.317,0.953-0.876,0.953-1.676v-14.02c0-0.815-0.325-1.389-0.975-1.721c-0.272-0.154-0.408-0.352-0.408-0.597v-0.849
			c0-0.276,0.166-0.42,0.499-0.436L135.251,42.55z M132.893,36.18c0.786,0,1.444,0.264,1.973,0.793s0.794,1.172,0.794,1.928
			c0,0.741-0.265,1.376-0.794,1.905c-0.529,0.53-1.164,0.794-1.905,0.794c-0.756,0-1.399-0.264-1.928-0.794
			c-0.529-0.528-0.793-1.164-0.793-1.905c0-0.786,0.276-1.436,0.827-1.95C131.619,36.437,132.227,36.18,132.893,36.18z"/>
		<path fill="#FFFFFF" d="M296.353,42.55v17.781c0,0.786,0.325,1.346,0.975,1.678c0.272,0.151,0.408,0.371,0.408,0.658v0.84
			c0,0.287-0.166,0.431-0.499,0.431h-6.259c-0.333,0-0.499-0.143-0.499-0.431v-0.84c0-0.302,0.143-0.522,0.431-0.658
			c0.635-0.317,0.953-0.876,0.953-1.676v-14.02c0-0.815-0.325-1.389-0.975-1.721c-0.272-0.154-0.408-0.352-0.408-0.597v-0.849
			c0-0.276,0.166-0.42,0.499-0.436L296.353,42.55z M293.995,36.18c0.786,0,1.444,0.264,1.973,0.793s0.794,1.172,0.794,1.928
			c0,0.741-0.265,1.376-0.794,1.905c-0.529,0.53-1.164,0.794-1.905,0.794c-0.756,0-1.399-0.264-1.928-0.794
			c-0.529-0.528-0.793-1.164-0.793-1.905c0-0.786,0.276-1.436,0.827-1.95C292.721,36.437,293.329,36.18,293.995,36.18z"/>
		<path fill="#FFFFFF" d="M312.937,42.55v17.781c0,0.786,0.325,1.346,0.975,1.678c0.272,0.151,0.408,0.371,0.408,0.658v0.84
			c0,0.287-0.166,0.431-0.499,0.431h-6.259c-0.333,0-0.499-0.143-0.499-0.431v-0.84c0-0.302,0.143-0.522,0.431-0.658
			c0.635-0.317,0.953-0.876,0.953-1.676v-14.02c0-0.815-0.325-1.389-0.975-1.721c-0.272-0.154-0.408-0.352-0.408-0.597v-0.849
			c0-0.276,0.166-0.42,0.499-0.436L312.937,42.55z M310.579,36.18c0.786,0,1.444,0.264,1.973,0.793s0.794,1.172,0.794,1.928
			c0,0.741-0.265,1.376-0.794,1.905c-0.529,0.53-1.164,0.794-1.905,0.794c-0.756,0-1.399-0.264-1.928-0.794
			c-0.529-0.528-0.793-1.164-0.793-1.905c0-0.786,0.276-1.436,0.827-1.95C309.305,36.437,309.913,36.18,310.579,36.18z"/>
		<path fill="#FFFFFF" d="M150.605,57.269c-0.272,4.763-2.14,7.144-5.602,7.144c-2.041,0-3.719-0.899-5.034-2.699
			c-1.315-1.799-1.973-4.551-1.973-8.255c0-3.886,0.7-6.755,2.098-8.607c1.398-1.852,3.155-2.778,5.273-2.778
			c1.436,0,2.642,0.427,3.617,1.281c0.975,0.855,1.463,1.916,1.463,3.187c0,0.802-0.227,1.44-0.681,1.916
			c-0.453,0.476-1.02,0.715-1.701,0.715c-0.605,0-1.1-0.196-1.485-0.59c-0.386-0.393-0.579-0.877-0.579-1.452
			c0-0.514,0.189-1.051,0.567-1.611c0.166-0.241,0.249-0.423,0.249-0.544c0-0.499-0.401-0.749-1.202-0.749
			c-1.739,0-2.608,1.746-2.608,5.239v5.239c0,4.415,0.915,6.623,2.747,6.623c1.392,0,2.194-1.437,2.406-4.309L150.605,57.269z"/>
		<path fill="#FFFFFF" d="M160.652,59.764V45.726c0-0.348-0.204-0.703-0.613-1.066c-0.226-0.212-0.34-0.378-0.34-0.499v-1.111
			c0-0.272,0.143-0.408,0.431-0.408l5.012-0.09v18.259c0,0.362,0.204,0.725,0.612,1.086c0.241,0.214,0.363,0.382,0.363,0.505v1.1
			c0,0.276-0.151,0.421-0.454,0.436l-5.011,0.091v-1.77c-1.633,1.316-3.032,1.973-4.195,1.973c-1.165,0-2.068-0.382-2.71-1.145
			c-0.643-0.764-0.964-1.765-0.964-3.005V45.726c0-0.348-0.204-0.703-0.612-1.066c-0.243-0.212-0.363-0.378-0.363-0.499v-1.111
			c0-0.272,0.151-0.408,0.453-0.408l5.012-0.09v16.941c0,1.089,0.416,1.633,1.248,1.633
			C159.245,61.125,159.956,60.671,160.652,59.764z"/>
		<path fill="#FFFFFF" d="M173.101,28.671v31.66c0,0.786,0.325,1.346,0.975,1.678c0.272,0.151,0.408,0.371,0.408,0.658v0.84
			c0,0.287-0.166,0.431-0.499,0.431h-6.259c-0.333,0-0.499-0.143-0.499-0.431v-0.84c0-0.302,0.143-0.522,0.431-0.658
			c0.635-0.317,0.952-0.876,0.952-1.677V32.434c0-0.816-0.325-1.39-0.975-1.723c-0.272-0.137-0.408-0.336-0.408-0.597v-0.849
			c0-0.275,0.166-0.413,0.499-0.413L173.101,28.671z"/>
		<path fill="#FFFFFF" d="M176.458,45h-0.794c-0.348,0-0.522-0.151-0.522-0.454v-1.134c0-0.318,0.166-0.605,0.499-0.862
			c0.438-0.318,0.718-0.677,0.839-1.077c0.121-0.4,0.181-1.054,0.181-1.962v-3.719c0-0.363,0.242-0.575,0.726-0.635l2.767-0.295
			c0.241-0.03,0.4-0.046,0.476-0.046c0.211,0,0.317,0.181,0.317,0.544v7.19h2.313c0.439,0,0.658,0.174,0.658,0.522v1.383
			c0,0.363-0.175,0.545-0.522,0.545h-2.45v13.788c0,1.497,0.461,2.246,1.384,2.246c0.211,0,0.438-0.031,0.68-0.091
			c0.166-0.046,0.295-0.068,0.386-0.068c0.272,0,0.446,0.106,0.522,0.317l0.34,1.089c0.046,0.09,0.069,0.159,0.069,0.204
			c0,0.333-0.499,0.737-1.497,1.213c-0.998,0.477-1.935,0.715-2.812,0.715c-2.373,0-3.56-1.474-3.56-4.422V45z"/>
		<path fill="#FFFFFF" d="M193.852,59.764V45.726c0-0.348-0.204-0.703-0.613-1.066c-0.226-0.212-0.34-0.378-0.34-0.499v-1.111
			c0-0.272,0.143-0.408,0.431-0.408l5.012-0.09v18.259c0,0.362,0.204,0.725,0.613,1.086c0.241,0.214,0.363,0.382,0.363,0.505v1.1
			c0,0.276-0.151,0.421-0.454,0.436l-5.012,0.091v-1.77c-1.633,1.316-3.032,1.973-4.195,1.973c-1.165,0-2.068-0.382-2.71-1.145
			s-0.964-1.765-0.964-3.005V45.726c0-0.348-0.204-0.703-0.612-1.066c-0.243-0.212-0.363-0.378-0.363-0.499v-1.111
			c0-0.272,0.151-0.408,0.453-0.408l5.012-0.09v16.941c0,1.089,0.416,1.633,1.248,1.633
			C192.446,61.125,193.157,60.671,193.852,59.764z"/>
		<path fill="#FFFFFF" d="M205.532,47.132c0.998-3.25,2.397-4.876,4.196-4.876c0.725,0,1.296,0.249,1.712,0.749
			c0.416,0.499,0.624,1.088,0.624,1.769c0,0.68-0.196,1.259-0.59,1.735c-0.393,0.476-0.907,0.714-1.542,0.714
			c-0.696,0-1.331-0.342-1.905-1.026c-1.089,1.74-1.633,3.819-1.633,6.239v7.713c0,0.681,0.287,1.294,0.862,1.838
			c0.241,0.212,0.363,0.37,0.363,0.476v1.134c0,0.227-0.099,0.34-0.295,0.34h-6.191c-0.182,0-0.272-0.075-0.272-0.227v-1.406
			c0-0.136,0.105-0.249,0.317-0.34c0.484-0.226,0.726-0.658,0.726-1.293V46.678c0-0.801-0.25-1.459-0.749-1.973
			c-0.197-0.212-0.295-0.378-0.295-0.499v-1.111c0-0.302,0.211-0.461,0.635-0.476l4.036-0.068V47.132z"/>
		<path fill="#FFFFFF" d="M220.863,50.307v-3.175c0-1.875-0.725-2.812-2.177-2.812c-0.514,0-0.771,0.159-0.771,0.476
			c0,0.122,0.046,0.303,0.136,0.544c0.181,0.439,0.272,0.817,0.272,1.134c0,0.575-0.19,1.062-0.567,1.463
			c-0.378,0.401-0.899,0.601-1.564,0.601c-0.726,0-1.308-0.223-1.746-0.669c-0.439-0.446-0.658-1.032-0.658-1.758
			c0-1.194,0.533-2.166,1.598-2.914c1.066-0.748,2.302-1.122,3.708-1.122c1.98,0,3.519,0.533,4.615,1.598
			c1.096,1.067,1.644,2.575,1.644,4.525v11.294c0,0.62,0.065,1.093,0.193,1.418c0.128,0.325,0.412,0.533,0.85,0.624
			c0.363,0.076,0.544,0.272,0.544,0.59v0.975c0,0.802-0.619,1.202-1.856,1.202c-1.66,0-2.806-0.801-3.439-2.404
			c-1.454,1.679-2.854,2.517-4.201,2.517c-1.287,0-2.346-0.533-3.179-1.599c-0.833-1.066-1.249-2.43-1.249-4.093
			C213.016,54.457,215.632,51.652,220.863,50.307z M220.863,52.62c-2.132,0.787-3.197,2.517-3.197,5.194
			c0,2.102,0.552,3.152,1.655,3.152c0.484,0,0.861-0.238,1.134-0.714s0.408-1.001,0.408-1.577V52.62z"/>
		<path fill="#FFFFFF" d="M242.543,31.415v13.313h1.497c0.59,0,1.001-0.132,1.236-0.397s0.473-0.797,0.715-1.599
			c0.181-0.59,0.306-0.926,0.374-1.009c0.068-0.083,0.245-0.124,0.533-0.124h0.998c0.393,0,0.59,0.181,0.59,0.544v7.824
			c0,0.378-0.158,0.567-0.476,0.567h-1.111c-0.257,0-0.427-0.049-0.51-0.147c-0.083-0.098-0.193-0.367-0.329-0.805
			c-0.287-1.013-0.597-1.629-0.93-1.848c-0.332-0.219-0.696-0.329-1.088-0.329h-1.497v12.314c0,0.787,0.287,1.376,0.862,1.769
			c0.393,0.257,0.59,0.56,0.59,0.908v1.02c0,0.348-0.196,0.522-0.59,0.522h-7.076c-0.333,0-0.499-0.159-0.499-0.476v-1.066
			c0-0.333,0.196-0.635,0.59-0.908c0.575-0.408,0.862-0.998,0.862-1.769V32.866c0-0.771-0.302-1.361-0.907-1.769
			c-0.408-0.257-0.613-0.559-0.613-0.908v-1.02c0-0.332,0.166-0.499,0.499-0.499h11.747c0.348,0,0.899-0.031,1.655-0.091
			c0.408-0.046,0.65-0.068,0.726-0.068c0.363,0,0.581,0.046,0.658,0.136c0.075,0.091,0.113,0.287,0.113,0.59v6.758
			c0,0.393-0.219,0.59-0.658,0.59h-0.884c-0.272,0-0.45-0.056-0.533-0.17c-0.083-0.113-0.178-0.488-0.283-1.123
			c-0.242-1.527-0.662-2.555-1.259-3.084c-0.598-0.529-1.471-0.794-2.619-0.794H242.543z"/>
		<path fill="#FFFFFF" d="M260.233,50.307v-3.175c0-1.875-0.725-2.812-2.177-2.812c-0.514,0-0.771,0.159-0.771,0.476
			c0,0.122,0.046,0.303,0.136,0.544c0.181,0.439,0.272,0.817,0.272,1.134c0,0.575-0.19,1.062-0.567,1.463
			c-0.378,0.401-0.899,0.601-1.564,0.601c-0.726,0-1.308-0.223-1.746-0.669c-0.439-0.446-0.658-1.032-0.658-1.758
			c0-1.194,0.533-2.166,1.598-2.914c1.066-0.748,2.302-1.122,3.708-1.122c1.98,0,3.519,0.533,4.615,1.598
			c1.096,1.067,1.644,2.575,1.644,4.525v11.294c0,0.62,0.065,1.093,0.193,1.418c0.128,0.325,0.412,0.533,0.85,0.624
			c0.363,0.076,0.544,0.272,0.544,0.59v0.975c0,0.802-0.619,1.202-1.856,1.202c-1.66,0-2.806-0.801-3.439-2.404
			c-1.454,1.679-2.854,2.517-4.201,2.517c-1.287,0-2.346-0.533-3.179-1.599c-0.833-1.066-1.249-2.43-1.249-4.093
			C252.386,54.457,255.002,51.652,260.233,50.307z M260.233,52.62c-2.132,0.787-3.197,2.517-3.197,5.194
			c0,2.102,0.552,3.152,1.655,3.152c0.484,0,0.861-0.238,1.134-0.714s0.408-1.001,0.408-1.577V52.62z"/>
		<path fill="#FFFFFF" d="M272.774,46.451v13.812c0,0.605,0.219,1.149,0.658,1.633c0.196,0.227,0.296,0.401,0.296,0.522v0.975
			c0,0.363-0.182,0.544-0.545,0.544h-5.307c-0.333,0-0.499-0.143-0.499-0.431v-1.089c0-0.211,0.12-0.423,0.363-0.635
			c0.363-0.332,0.544-0.74,0.544-1.225V46.315c0-0.696-0.242-1.255-0.725-1.679c-0.257-0.226-0.386-0.431-0.386-0.612v-0.975
			c0-0.332,0.234-0.499,0.703-0.499l4.898-0.113v1.769c1.421-1.3,2.842-1.95,4.264-1.95c1.406,0,2.472,0.756,3.197,2.268
			c1.708-1.511,3.221-2.268,4.536-2.268c1.21,0,2.136,0.435,2.778,1.304c0.643,0.87,0.964,2.022,0.964,3.458v13.539
			c0,0.545,0.199,1.006,0.597,1.384c0.207,0.197,0.31,0.355,0.31,0.476v0.975c0,0.363-0.166,0.544-0.497,0.544h-5.288
			c-0.316,0-0.474-0.151-0.474-0.454v-1.066c0-0.196,0.098-0.393,0.295-0.59c0.378-0.348,0.567-0.87,0.567-1.565V47.222
			c0-1.255-0.454-1.882-1.361-1.882c-0.499,0-1.164,0.371-1.996,1.111v13.812c0,0.726,0.242,1.308,0.726,1.746
			c0.181,0.166,0.272,0.303,0.272,0.408v0.908c0,0.408-0.189,0.612-0.567,0.612h-5.307c-0.318,0-0.477-0.159-0.477-0.476v-1.043
			c0-0.196,0.098-0.393,0.295-0.59c0.378-0.363,0.567-0.884,0.567-1.565V47.494c0-1.436-0.469-2.155-1.406-2.155
			C274.225,45.34,273.56,45.711,272.774,46.451z"/>
		<path fill="#FFFFFF" d="M304.478,28.671v31.66c0,0.786,0.325,1.346,0.975,1.678c0.272,0.151,0.408,0.371,0.408,0.658v0.84
			c0,0.287-0.166,0.431-0.499,0.431h-6.258c-0.333,0-0.499-0.143-0.499-0.431v-0.84c0-0.302,0.143-0.522,0.431-0.658
			c0.635-0.317,0.952-0.876,0.952-1.677V32.434c0-0.816-0.325-1.39-0.975-1.723c-0.272-0.137-0.408-0.336-0.408-0.597v-0.849
			c0-0.275,0.166-0.413,0.499-0.413L304.478,28.671z"/>
		<path fill="#FFFFFF" d="M322.803,50.307v-3.175c0-1.875-0.725-2.812-2.177-2.812c-0.514,0-0.771,0.159-0.771,0.476
			c0,0.122,0.046,0.303,0.136,0.544c0.181,0.439,0.272,0.817,0.272,1.134c0,0.575-0.19,1.062-0.567,1.463
			c-0.378,0.401-0.899,0.601-1.564,0.601c-0.726,0-1.308-0.223-1.746-0.669c-0.439-0.446-0.658-1.032-0.658-1.758
			c0-1.194,0.533-2.166,1.598-2.914c1.066-0.748,2.302-1.122,3.708-1.122c1.98,0,3.519,0.533,4.615,1.598
			c1.096,1.067,1.644,2.575,1.644,4.525v11.294c0,0.62,0.065,1.093,0.193,1.418c0.128,0.325,0.412,0.533,0.85,0.624
			c0.363,0.076,0.544,0.272,0.544,0.59v0.975c0,0.802-0.619,1.202-1.856,1.202c-1.66,0-2.806-0.801-3.439-2.404
			c-1.454,1.679-2.854,2.517-4.201,2.517c-1.287,0-2.346-0.533-3.179-1.599c-0.833-1.066-1.249-2.43-1.249-4.093
			C314.956,54.457,317.572,51.652,322.803,50.307z M322.803,52.62c-2.132,0.787-3.197,2.517-3.197,5.194
			c0,2.102,0.552,3.152,1.655,3.152c0.484,0,0.861-0.238,1.134-0.714s0.408-1.001,0.408-1.577V52.62z"/>
		<path fill="#FFFFFF" d="M334.46,47.132c0.998-3.25,2.397-4.876,4.196-4.876c0.725,0,1.296,0.249,1.712,0.749
			c0.416,0.499,0.624,1.088,0.624,1.769c0,0.68-0.196,1.259-0.59,1.735c-0.393,0.476-0.907,0.714-1.542,0.714
			c-0.696,0-1.331-0.342-1.905-1.026c-1.089,1.74-1.633,3.819-1.633,6.239v7.713c0,0.681,0.287,1.294,0.862,1.838
			c0.241,0.212,0.363,0.37,0.363,0.476v1.134c0,0.227-0.099,0.34-0.295,0.34h-6.191c-0.182,0-0.272-0.075-0.272-0.227v-1.406
			c0-0.136,0.105-0.249,0.317-0.34c0.484-0.226,0.726-0.658,0.726-1.293V46.678c0-0.801-0.25-1.459-0.749-1.973
			c-0.197-0.212-0.295-0.378-0.295-0.499v-1.111c0-0.302,0.211-0.461,0.635-0.476l4.036-0.068V47.132z"/>
	</g>
</g>
<g>
	<path fill="#FFFFFF" d="M109.132,30.486c-0.075,1.482-0.419,2.651-1.031,3.508c-0.613,0.857-1.407,1.285-2.384,1.285
		c-1.397,0-2.519-0.806-3.364-2.418c-0.845-1.613-1.268-3.971-1.268-7.076c0-3.066,0.412-5.428,1.234-7.089
		c0.823-1.66,1.88-2.49,3.172-2.49c0.533,0,1.124,0.192,1.77,0.576c0.09,0.048,0.158,0.072,0.203,0.072
		c0.052,0,0.127-0.048,0.225-0.145c0.053-0.081,0.117-0.125,0.192-0.133h0.643c0.143,0,0.214,0.115,0.214,0.346v3.92
		c0,0.223-0.071,0.335-0.214,0.335h-0.496c-0.158,0-0.265-0.043-0.321-0.132c-0.056-0.088-0.133-0.326-0.231-0.717
		c-0.459-1.84-1.063-2.761-1.814-2.761c-0.444,0-0.785,0.239-1.026,0.717s-0.425,1.381-0.552,2.71
		c-0.128,1.329-0.192,2.675-0.192,4.036c0,2.977,0.158,5.163,0.474,6.556c0.316,1.393,0.868,2.09,1.657,2.09
		c0.948,0,1.568-1.111,1.861-3.334L109.132,30.486z"/>
	<path fill="#FFFFFF" d="M113.685,27.857v-1.673c0-0.988-0.361-1.482-1.082-1.482c-0.255,0-0.383,0.084-0.383,0.251
		c0,0.064,0.022,0.16,0.068,0.287c0.09,0.232,0.135,0.431,0.135,0.598c0,0.303-0.094,0.56-0.282,0.771
		c-0.187,0.211-0.447,0.317-0.778,0.317c-0.361,0-0.649-0.118-0.867-0.353s-0.327-0.544-0.327-0.927
		c0-0.629,0.265-1.141,0.794-1.535c0.53-0.395,1.144-0.592,1.843-0.592c0.984,0,1.749,0.281,2.293,0.842
		c0.545,0.562,0.817,1.357,0.817,2.384v5.951c0,0.327,0.032,0.575,0.096,0.747c0.064,0.172,0.204,0.281,0.423,0.329
		c0.18,0.04,0.27,0.143,0.27,0.311v0.514c0,0.423-0.307,0.633-0.922,0.633c-0.825,0-1.395-0.422-1.71-1.266
		c-0.722,0.884-1.418,1.326-2.087,1.326c-0.64,0-1.166-0.281-1.58-0.842c-0.414-0.562-0.62-1.28-0.62-2.157
		C109.786,30.044,111.085,28.566,113.685,27.857z M113.685,29.076c-1.06,0.414-1.589,1.327-1.589,2.737
		c0,1.107,0.274,1.661,0.823,1.661c0.24,0,0.428-0.125,0.563-0.376c0.135-0.251,0.203-0.528,0.203-0.83V29.076z"/>
	<path fill="#FFFFFF" d="M119.478,26.184c0.496-1.713,1.191-2.569,2.085-2.569c0.361,0,0.644,0.131,0.851,0.394
		c0.207,0.263,0.31,0.574,0.31,0.932c0,0.359-0.098,0.664-0.293,0.914c-0.196,0.251-0.451,0.376-0.767,0.376
		c-0.345,0-0.661-0.18-0.946-0.541c-0.541,0.917-0.812,2.013-0.812,3.288v4.065c0,0.359,0.143,0.681,0.429,0.968
		c0.12,0.111,0.18,0.196,0.18,0.251v0.598c0,0.12-0.049,0.179-0.146,0.179h-3.077c-0.09,0-0.135-0.04-0.135-0.12v-0.741
		c0-0.071,0.053-0.131,0.158-0.179c0.24-0.119,0.36-0.346,0.36-0.681v-7.374c0-0.422-0.124-0.768-0.372-1.039
		c-0.098-0.111-0.147-0.199-0.147-0.263v-0.586c0-0.16,0.105-0.243,0.316-0.251l2.006-0.036V26.184z"/>
	<path fill="#FFFFFF" d="M123.67,25.06h-0.395c-0.173,0-0.259-0.079-0.259-0.238v-0.598c0-0.167,0.083-0.319,0.248-0.454
		c0.218-0.167,0.357-0.356,0.417-0.567c0.06-0.211,0.09-0.556,0.09-1.034v-1.96c0-0.192,0.12-0.303,0.361-0.335l1.375-0.155
		c0.12-0.016,0.199-0.024,0.236-0.024c0.105,0,0.158,0.096,0.158,0.287v3.788h1.15c0.217,0,0.327,0.092,0.327,0.275v0.729
		c0,0.192-0.087,0.287-0.259,0.287h-1.217v7.266c0,0.789,0.23,1.183,0.687,1.183c0.105,0,0.218-0.016,0.338-0.048
		c0.083-0.024,0.147-0.036,0.192-0.036c0.135,0,0.221,0.056,0.259,0.167l0.169,0.574c0.022,0.048,0.033,0.084,0.033,0.107
		c0,0.175-0.248,0.389-0.744,0.639c-0.496,0.251-0.961,0.376-1.397,0.376c-1.179,0-1.769-0.776-1.769-2.33V25.06z"/>
	<path fill="#FFFFFF" d="M131.818,27.857v-1.673c0-0.988-0.361-1.482-1.082-1.482c-0.255,0-0.383,0.084-0.383,0.251
		c0,0.064,0.022,0.16,0.068,0.287c0.09,0.232,0.135,0.431,0.135,0.598c0,0.303-0.094,0.56-0.282,0.771
		c-0.187,0.211-0.447,0.317-0.778,0.317c-0.361,0-0.649-0.118-0.867-0.353c-0.218-0.235-0.327-0.544-0.327-0.927
		c0-0.629,0.265-1.141,0.794-1.535c0.53-0.395,1.144-0.592,1.843-0.592c0.984,0,1.749,0.281,2.293,0.842
		c0.545,0.562,0.817,1.357,0.817,2.384v5.951c0,0.327,0.032,0.575,0.096,0.747c0.064,0.172,0.204,0.281,0.423,0.329
		c0.18,0.04,0.27,0.143,0.27,0.311v0.514c0,0.423-0.307,0.633-0.922,0.633c-0.825,0-1.395-0.422-1.71-1.266
		c-0.722,0.884-1.418,1.326-2.087,1.326c-0.64,0-1.166-0.281-1.58-0.842c-0.414-0.562-0.62-1.28-0.62-2.157
		C127.919,30.044,129.218,28.566,131.818,27.857z M128.493,21.487v-0.454c0-0.605,0.122-1.098,0.366-1.476
		c0.244-0.378,0.592-0.567,1.043-0.567c0.367,0,0.872,0.203,1.51,0.609c0.48,0.303,0.823,0.454,1.025,0.454
		c0.353,0,0.53-0.243,0.53-0.729v-0.287h0.969v0.55c0,0.566-0.126,1.028-0.378,1.386c-0.252,0.359-0.58,0.538-0.986,0.538
		c-0.429,0-0.969-0.228-1.623-0.681c-0.444-0.303-0.763-0.454-0.958-0.454c-0.361,0-0.541,0.275-0.541,0.825v0.287H128.493z
		 M131.818,29.076c-1.06,0.414-1.589,1.327-1.589,2.737c0,1.107,0.274,1.661,0.823,1.661c0.24,0,0.428-0.125,0.563-0.376
		c0.135-0.251,0.203-0.528,0.203-0.83V29.076z"/>
	<path fill="#FFFFFF" d="M138.738,23.519c2.374,0,3.561,1.98,3.561,5.939c0,1.865-0.293,3.303-0.879,4.314
		c-0.586,1.012-1.431,1.518-2.535,1.518c-1.12,0-1.982-0.496-2.587-1.488s-0.907-2.464-0.907-4.415c0-2.039,0.315-3.528,0.946-4.464
		S137.769,23.519,138.738,23.519z M139.831,28.263c0-1.362-0.079-2.296-0.236-2.802c-0.158-0.506-0.414-0.759-0.766-0.759
		c-0.654,0-0.981,0.964-0.981,2.892v2.701c0,1.434,0.073,2.428,0.22,2.981c0.146,0.554,0.415,0.831,0.806,0.831
		c0.331,0,0.573-0.213,0.727-0.639c0.154-0.427,0.231-1.213,0.231-2.361V28.263z"/>
	<path fill="#FFFFFF" d="M151.653,24.237v-5.798c0-0.437-0.158-0.74-0.473-0.907c-0.143-0.072-0.214-0.177-0.214-0.315V16.77
		c0-0.145,0.086-0.217,0.26-0.217l2.659-0.096v16.754c0,0.359,0.094,0.617,0.282,0.777c0.09,0.079,0.135,0.211,0.135,0.394v0.514
		c0,0.143-0.068,0.215-0.203,0.215h-2.445v-1.136c-0.609,0.813-1.236,1.219-1.882,1.219c-1.63,0-2.445-1.721-2.445-5.163
		c0-4.342,0.882-6.513,2.648-6.513C150.492,23.519,151.052,23.758,151.653,24.237z M151.653,25.419
		c-0.315-0.255-0.601-0.382-0.857-0.382c-0.496,0-0.798,0.387-0.907,1.16c-0.109,0.772-0.164,1.637-0.164,2.593v2.128
		c0,1.84,0.316,2.76,0.947,2.76c0.353,0,0.68-0.247,0.98-0.74V25.419z"/>
	<path fill="#FFFFFF" d="M158.978,27.857v-1.673c0-0.988-0.361-1.482-1.082-1.482c-0.255,0-0.383,0.084-0.383,0.251
		c0,0.064,0.022,0.16,0.068,0.287c0.09,0.232,0.135,0.431,0.135,0.598c0,0.303-0.094,0.56-0.282,0.771
		c-0.187,0.211-0.447,0.317-0.778,0.317c-0.361,0-0.649-0.118-0.867-0.353c-0.218-0.235-0.327-0.544-0.327-0.927
		c0-0.629,0.265-1.141,0.794-1.535c0.53-0.395,1.144-0.592,1.843-0.592c0.984,0,1.749,0.281,2.293,0.842
		c0.545,0.562,0.817,1.357,0.817,2.384v5.951c0,0.327,0.032,0.575,0.096,0.747c0.064,0.172,0.204,0.281,0.423,0.329
		c0.18,0.04,0.27,0.143,0.27,0.311v0.514c0,0.423-0.307,0.633-0.922,0.633c-0.825,0-1.395-0.422-1.71-1.266
		c-0.722,0.884-1.418,1.326-2.087,1.326c-0.64,0-1.166-0.281-1.58-0.842s-0.62-1.28-0.62-2.157
		C155.079,30.044,156.379,28.566,158.978,27.857z M158.978,29.076c-1.06,0.414-1.589,1.327-1.589,2.737
		c0,1.107,0.274,1.661,0.823,1.661c0.24,0,0.428-0.125,0.563-0.376c0.135-0.251,0.203-0.528,0.203-0.83V29.076z"/>
</g>
</svg>
