<?xml version="1.0" encoding="utf-8"?>
<!-- Generator: Adobe Illustrator 17.0.0, SVG Export Plug-In . SVG Version: 6.00 Build 0)  -->
<!DOCTYPE svg PUBLIC "-//W3C//DTD SVG 1.1//EN" "http://www.w3.org/Graphics/SVG/1.1/DTD/svg11.dtd">
<svg version="1.1" id="Capa_1" xmlns="http://www.w3.org/2000/svg" xmlns:xlink="http://www.w3.org/1999/xlink" x="0px" y="0px"
	 width="32px" height="32px" viewBox="240 240 32 32" enable-background="new 240 240 32 32" xml:space="preserve">
<path fill="#9E9E9E" d="M255.039,265.596h-3.202v-22.948c0-0.156-0.05-0.284-0.15-0.384c-0.1-0.1-0.228-0.15-0.384-0.15h-3.202
	c-0.156,0-0.284,0.05-0.384,0.15c-0.1,0.1-0.15,0.228-0.15,0.384v22.948h-3.202c-0.244,0-0.411,0.111-0.5,0.333
	c-0.089,0.212-0.05,0.406,0.117,0.584l5.337,5.337c0.122,0.1,0.25,0.15,0.384,0.15c0.145,0,0.272-0.05,0.384-0.15l5.32-5.32
	c0.111-0.133,0.167-0.267,0.167-0.4c0-0.156-0.05-0.284-0.15-0.385C255.322,265.646,255.194,265.596,255.039,265.596z"/>
<path fill="#9E9E9E" d="M267.497,270.099h-4.136c-0.233,0-0.4,0.011-0.5,0.033l-0.234,0.033v-0.033l0.184-0.184
	c0.166-0.2,0.283-0.344,0.35-0.433l6.154-8.84v-1.484h-9.456v3.819h2.001v-1.918h3.869c0.2,0,0.367-0.017,0.5-0.05
	c0.033,0,0.075-0.003,0.125-0.008c0.05-0.005,0.086-0.008,0.108-0.008v0.05l-0.184,0.15c-0.1,0.1-0.217,0.25-0.35,0.45l-6.154,8.823
	V272h9.74v-3.886h-2.018L267.497,270.099L267.497,270.099z"/>
<path fill="#15723F" d="M269.832,253.155l-3.836-11.041h-2.702l-3.836,11.041h-1.167v1.768h4.786v-1.768h-1.251l0.784-2.402h4.053
	l0.784,2.402h-1.25v1.768H271v-1.768H269.832z M263.161,248.918l1.217-3.636c0.044-0.133,0.086-0.295,0.125-0.484
	c0.039-0.189,0.058-0.289,0.058-0.3l0.05-0.333h0.067c0,0.044,0.011,0.156,0.033,0.333l0.201,0.784l1.201,3.636L263.161,248.918
	L263.161,248.918z"/>
</svg>
