<?xml version="1.0" encoding="utf-8"?>
<!-- Generator: Adobe Illustrator 17.0.0, SVG Export Plug-In . SVG Version: 6.00 Build 0)  -->
<!DOCTYPE svg PUBLIC "-//W3C//DTD SVG 1.1//EN" "http://www.w3.org/Graphics/SVG/1.1/DTD/svg11.dtd">
<svg version="1.1" id="Camada_1" xmlns="http://www.w3.org/2000/svg" xmlns:xlink="http://www.w3.org/1999/xlink" x="0px" y="0px"
	 width="28px" height="28px" viewBox="0 0 28 28" enable-background="new 0 0 28 28" xml:space="preserve">
<g>
	<path fill="#E0E0DF" d="M119.148-11.834l-0.076-0.615c0-0.433-0.351-0.783-0.783-0.783h-1.479v1.711
		C117.503-11.477,118.296-11.546,119.148-11.834z"/>
	<path fill="#F1F0F0" d="M116.81-13.232h-1.479c-0.433,0-0.783,0.351-0.783,0.783l-0.039,0.321c0.437,0.215,1.254,0.54,2.302,0.607
		V-13.232z"/>
	<path fill="#CE7167" d="M109.395-22.971v3.448c0,4.095,3.32,7.415,7.415,7.415h0v-10.739L109.395-22.971z"/>
	<polygon fill="#CC685C" points="116.81,-23.643 109.395,-23.643 109.395,-22.971 116.81,-22.847 	"/>
	<polygon fill="#C66053" points="124.225,-22.723 124.225,-23.643 116.81,-23.643 116.81,-22.847 	"/>
	<path fill="#CC685C" d="M116.81-22.847v10.739c4.095,0,7.415-3.32,7.415-7.415v-3.2L116.81-22.847z"/>
	<polyline fill="none" stroke="#FFFFFF" stroke-linejoin="round" stroke-miterlimit="10" points="116.183,-23.483 113.233,-14.487 
		109.767,-23.483 	"/>
	<polyline fill="none" stroke="#FFFFFF" stroke-linejoin="round" stroke-miterlimit="10" points="117.437,-23.483 120.386,-14.487 
		123.853,-23.483 	"/>
	<path fill="#F5E3BD" d="M109.509-25.265c-0.53,0-0.959,0.429-0.959,0.959c0,0.529,0.429,0.959,0.959,0.959h7.301v-1.917H109.509z"
		/>
	<path fill="#F5E3BD" d="M124.111-25.265h-7.301v1.917h7.301c0.53,0,0.959-0.429,0.959-0.959
		C125.069-24.836,124.64-25.265,124.111-25.265z"/>
	<path fill="#C38B3A" d="M119.735-7.05l-0.587-4.785c-0.852,0.288-1.645,0.358-2.338,0.313v4.471H119.735z"/>
	<path fill="#C38B3A" d="M116.81,1.695h2.507c0.733,0,1.327-0.594,1.327-1.327l-0.335-2.727h-3.5V1.695z"/>
	<polygon fill="#C38B3A" points="116.81,-6.01 116.81,-3.4 120.182,-3.4 119.862,-6.01 	"/>
	<polygon fill="#B27B36" points="116.81,-6.01 113.757,-6.01 113.437,-3.4 116.81,-3.4 	"/>
	<path fill="#B27B36" d="M116.81-11.521c-1.048-0.067-1.865-0.392-2.302-0.607l-0.623,5.078h2.925V-11.521z"/>
	<path fill="#B27B36" d="M113.31-2.359l-0.335,2.727c0,0.733,0.594,1.327,1.327,1.327h2.507v-4.055H113.31z"/>
	<polygon fill="#DEA047" points="116.81,-6.01 119.862,-6.01 119.735,-7.05 116.81,-7.05 	"/>
	<polygon fill="#DEA047" points="116.81,-7.05 113.885,-7.05 113.757,-6.01 116.81,-6.01 	"/>
	<polygon fill="#DB953B" points="116.81,-2.359 120.31,-2.359 120.182,-3.4 116.81,-3.4 	"/>
	<polygon fill="#DEA047" points="116.81,-3.4 113.437,-3.4 113.31,-2.359 116.81,-2.359 	"/>
</g>
<g>
	<g>
		<path fill="#CCD7E2" d="M-119.354,6.175c13.717-1.529,29.031-12.901,40.556-8.726c11.524,4.175,17.218,16.655,14.086,19.128
			C-67.843,19.05-91.131,2.977-119.354,6.175z"/>
		<path fill="#CCD7E2" d="M-71.379-31.018c17.846,7.593,50.522-2.867,71.317-16.164C7.675-30.741-10.217-19.86-16.262-5.836
			c-5.358,12.428-2.902,19.101-9.913,27.08C-32.463,10.847-45.76-9.221-71.379-1.946V-31.018z"/>
		<path fill="#CCD7E2" d="M-180.264-45.404c19.895-8.791,32.097-15.077,71.452-13.384c39.355,1.692,74.046,13.384,74.046,13.384
			c-21.633,1.468-34.449,2.816-40.252,16.597L-180.264-45.404z"/>
		<path fill="#CCD7E2" d="M-167.611,7.135c1.786,2.644-0.164,6.067-3.777,8.509c-3.611,2.441-7.517,2.976-9.303,0.334
			c-2.859-4.229-4.659-13.202-1.046-15.645C-178.126-2.107-170.469,2.908-167.611,7.135z"/>
		<path fill="#DEE6ED" d="M-45.76-15.911c0,12.055-82.828,29.337-109.895,29.337c-35.363,0-63.228-19.356-63.228-29.337
			c0-9.98,27.866-33.226,63.228-33.226C-128.588-49.137-45.76-27.966-45.76-15.911z"/>
		<path fill="#CCD7E2" d="M-179.682-9.884c-11.889,0-14.991,2.873-14.991,6.418c0,3.547,3.102,6.418,14.991,6.418
			c13.451,0,33.715-2.873,33.715-6.418C-145.968-7.011-166.231-9.884-179.682-9.884z M-159.149-29.861
			c17.881,0,44.818-2.874,44.818-6.42c0-3.545-26.938-6.418-44.818-6.418c-15.805,0-19.931,2.873-19.931,6.418
			C-179.08-32.735-174.954-29.861-159.149-29.861z M-114.761-9.458c-14.055,3.509-17.029,7.212-16.17,10.65
			c0.86,3.44,5.222,5.312,19.279,1.806c15.902-3.97,39.163-12.736,38.305-16.177C-74.205-16.615-98.859-13.425-114.761-9.458z
			 M-85.815-29.089c-11.62-2.516-15.071-1.24-15.587,1.144c-0.516,2.383,2.099,4.969,13.719,7.484
			c13.146,2.845,33.37,5.199,33.884,2.817C-53.283-20.028-72.669-26.245-85.815-29.089z M-110.933-19.85
			c0-2.439-20.262-4.416-33.713-4.416c-11.889,0-14.991,1.977-14.991,4.416c0,2.437,3.102,4.414,14.991,4.414
			C-131.195-15.436-110.933-17.413-110.933-19.85z"/>
		<circle fill="#CCD7E2" cx="-196.718" cy="-21.74" r="7.068"/>
		<circle fill="#444242" cx="-196.718" cy="-21.74" r="4.717"/>
	</g>
	<path fill="#BAC8D6" d="M-111.829,7.877c13.528-2.73,27.781-15.406,39.629-12.263c11.847,3.143,18.618,15.074,15.717,17.812
		C-59.385,16.167-84,2.207-111.829,7.877z"/>
	<path fill="#BAC8D6" d="M-162.725,5.585c2.268,2.244,1.021,5.983-2.046,9.082c-3.068,3.099-6.793,4.383-9.06,2.14
		c-3.628-3.589-7.141-12.041-4.076-15.14C-174.841-1.431-166.352,1.996-162.725,5.585z"/>
</g>
<g>
	<path fill="#A38051" d="M77.464-0.713c-0.048-1.107-1.018-1.507-1.669-1.763c-1.364-0.536-2.743-1.004-4.055-1.748
		c-0.363-0.205-0.732-0.39-1.098-0.583c-0.289-0.152-0.522-0.459-0.796-0.651c-0.514-0.361-1.09-0.107-1.536,0.31
		c-0.304,0.285-0.561,0.528-0.928,0.657c-0.308,0.108-0.595,0.187-0.877,0.396c-0.212,0.156-0.36,0.471-0.512,0.712
		c-0.334,0.53-0.821,0.371-1.276,0.426c-0.591,0.071-1.109,0.5-1.675,0.702c-0.356,0.127-0.727,0.177-1.086,0.301
		c-0.345,0.119-0.686,0.245-1.034,0.338c-0.109-0.12-0.317-0.105-0.385,0.132c-0.173,0.608,0.368,1.099,0.682,1.371
		c0.622,0.541,1.334,0.911,2.022,1.267c0.515,0.266,1.038,0.523,1.57,0.722c0.589,0.221,1.258,0.229,1.864,0.258
		c0.729,0.035,1.459,0.002,2.188-0.021c1.215-0.037,2.42,0.073,3.634,0.108c1.101,0.032,2.281-0.036,3.304-0.642
		C76.473,1.181,77.514,0.459,77.464-0.713z"/>
	<path fill="#588D5F" d="M54.835-20.678c0,0,5.76-2.032,11.105,0.841c4.613,2.48,2.717,7.052-2.36,5.606
		C58.418-15.702,59.971-19.444,54.835-20.678z"/>
	<path fill="#588D5F" d="M82.927-20.678c0,0-5.761-2.032-11.105,0.841c-4.613,2.48-2.717,7.052,2.36,5.606
		C79.345-15.702,77.791-19.444,82.927-20.678z"/>
	<path fill="#2C6538" d="M66.955-15.781c0.333,0.351,0.648,0.755,0.883,1.212c0.061,0.113,0.111,0.232,0.162,0.351
		c0.021,0.061,0.043,0.123,0.064,0.185c0.026,0.067,0.039,0.127,0.055,0.189c0.015,0.062,0.033,0.12,0.047,0.186l0.041,0.198
		c0.029,0.132,0.046,0.27,0.069,0.405c0.081,0.548,0.124,1.116,0.152,1.686c0.053,1.14,0.049,2.288,0.022,3.364
		c-0.026,1.076-0.074,2.081-0.123,2.941c-0.035,0.607-0.071,1.14-0.102,1.578h1.362c-0.003-0.437-0.01-0.962-0.023-1.557
		c-0.019-0.872-0.052-1.889-0.112-2.979c-0.06-1.09-0.147-2.252-0.294-3.414c-0.075-0.581-0.166-1.161-0.296-1.731
		c-0.036-0.143-0.065-0.284-0.108-0.425l-0.061-0.21c-0.02-0.07-0.049-0.144-0.073-0.215c-0.025-0.071-0.05-0.145-0.079-0.206
		c-0.029-0.067-0.059-0.133-0.088-0.2c-0.068-0.129-0.135-0.258-0.212-0.378c-0.301-0.485-0.672-0.887-1.049-1.227
		c-0.378-0.341-0.767-0.619-1.136-0.855c-0.741-0.47-1.403-0.772-1.87-0.968c-0.468-0.194-0.745-0.28-0.745-0.28
		s0.269,0.108,0.718,0.337c0.447,0.231,1.08,0.583,1.766,1.1C66.266-16.433,66.621-16.134,66.955-15.781z"/>
	<path fill="#2C6538" d="M73.734-17.849c-0.467,0.196-1.129,0.498-1.87,0.968c-0.369,0.236-0.758,0.514-1.136,0.855
		c-0.377,0.34-0.748,0.741-1.049,1.227c-0.077,0.12-0.144,0.248-0.212,0.378c-0.029,0.066-0.058,0.133-0.088,0.2
		c-0.029,0.06-0.053,0.134-0.079,0.206c-0.024,0.071-0.053,0.145-0.073,0.215l-0.061,0.21c-0.043,0.141-0.072,0.283-0.108,0.425
		c-0.131,0.57-0.221,1.15-0.296,1.731c-0.147,1.162-0.235,2.324-0.295,3.414c-0.06,1.09-0.092,2.107-0.112,2.979
		c-0.013,0.595-0.02,1.12-0.023,1.557h1.362c-0.032-0.438-0.067-0.972-0.102-1.578c-0.049-0.861-0.097-1.865-0.123-2.941
		c-0.026-1.076-0.031-2.224,0.022-3.364c0.028-0.57,0.071-1.138,0.152-1.686c0.024-0.135,0.04-0.274,0.069-0.405l0.041-0.198
		c0.014-0.066,0.032-0.124,0.047-0.186c0.016-0.062,0.029-0.122,0.055-0.189c0.021-0.062,0.043-0.124,0.064-0.185
		c0.051-0.119,0.101-0.237,0.162-0.351c0.235-0.457,0.55-0.861,0.883-1.212c0.333-0.352,0.688-0.652,1.03-0.911
		c0.686-0.516,1.318-0.868,1.766-1.1c0.449-0.23,0.718-0.337,0.718-0.337S74.202-18.043,73.734-17.849z"/>
</g>
<g>
	<path fill="#D9C761" d="M3.11,14.159L3.313,14.4l-0.025-0.276l0.153,0.169L3.4,13.906L3.618,14.1
		c-0.048-0.745-0.001-2.021,0.641-3.28l0.089-0.175l-0.066-0.241l0.037-0.08c0.057-0.123,1.425-3.037,4.942-6.09l0.37-0.321
		l0.008,0.125c0.347-0.349,2.561-2.553,3.783-3.1l0.258-0.116l0.074,0.273c0.016,0.06,0.393,1.495-0.259,3.252l-0.032,0.086
		l-0.008,0.004l-0.078,0.27c-0.022,0.077-0.557,1.906-1.358,2.918l-0.055,0.07l-0.568,0.113l0.507,0.098l-0.186,0.298
		c-0.062,0.1-0.59,0.94-0.892,1.232l-0.18,0.26c-0.131,0.19-2.984,4.287-5.269,5.284l0.234,0.107l-0.424,0.126L4.625,15.49
		l0.157,0.195l-1.399,0.24L3.11,14.159z"/>
	<path fill="#ECE38F" d="M13.52,1.158c0,0,0.38,1.4-0.252,3.104l-0.686,0.367l0.563,0.009c0,0-0.534,1.848-1.316,2.835L10.147,7.81
		l1.365,0.265c0,0-0.619,0.993-0.888,1.216l-0.457,0.287l0.28-0.021c0,0-3.47,5.019-5.747,5.378l0.223,0.102l-0.408,0.121
		l0.169,0.033l-0.435,0.216l0.088,0.109l-0.752,0.129L3.48,14.974l0.143,0.17l-0.029-0.323l0.165,0.182l-0.053-0.502l0.228,0.203
		c0,0-0.404-1.922,0.541-3.774l0.377,0.641L4.54,10.425c0,0,1.363-2.955,4.881-6.009L9.472,5.26l0.296-1.01
		C9.768,4.25,12.248,1.728,13.52,1.158z"/>
	<g>
		<path fill="#369041" d="M6.068,14.469l0.118,0.268l0.04-0.262l0.089,0.183l0.05-0.358l0.139,0.219
			c0.131-0.728,0.457-1.927,1.253-3.033l0.122-0.169l-0.001-0.243l0.041-0.061c0.075-0.111,1.863-2.748,5.469-5.234l0.476-0.328
			l-0.019,0.11c0.573-0.452,2.681-2.078,3.748-2.421l0.315-0.101l0.001,0.331c0,0.06-0.007,1.491-0.937,3.096l-0.042,0.072
			l-0.008,0.003l-0.13,0.26c-0.036,0.072-0.887,1.766-1.776,2.636l-0.064,0.062l-0.525,0.036l0.419,0.171L14.633,9.96
			c-0.074,0.088-0.7,0.831-1.016,1.072l-0.209,0.229c-0.152,0.167-3.458,3.772-5.594,4.421l0.169,0.133l-0.357,0.061l-0.544,0.2
			l0.085,0.206L5.89,16.329L6.068,14.469z"/>
		<path fill="#459B4A" d="M17.666,3.37c0,0,0.003,1.408-0.904,2.974l-0.653,0.264l0.466,0.084c0,0-0.858,1.719-1.729,2.571
			l-1.476,0.1l1.077,0.44c0,0-0.738,0.88-1.011,1.06l-0.444,0.217l0.237,0.017c0,0-4.011,4.399-5.985,4.441l0.162,0.128L7.04,15.73
			l0.133,0.054l-0.41,0.151l0.048,0.117l-0.655,0.024l0.064-0.664l0.081,0.183l0.048-0.317l0.097,0.199l0.068-0.494l0.144,0.227
			c0,0,0.094-1.917,1.294-3.585l0.171,0.671L8.12,11.147c0,0,1.795-2.681,5.406-5.169l-0.146,0.825l0.473-0.939
			C13.852,5.863,16.48,3.752,17.666,3.37z"/>
	</g>
	<g>
		<path fill="#1C8ABA" d="M8.316,17.125l0.429-1.769l0.075,0.268l0.07-0.231l0.057,0.179l0.09-0.313l0.1,0.222
			c0.222-0.656,0.679-1.691,1.538-2.584l0.13-0.135l0.031-0.223l0.049-0.055c0.083-0.092,2.073-2.28,5.714-4.089l0.517-0.257
			l-0.031,0.095c0.638-0.368,2.72-1.537,3.725-1.709l0.326-0.056l-0.046,0.328c-0.008,0.055-0.204,1.373-1.27,2.727l-0.051,0.065
			l-0.008,0.002l-0.15,0.216c-0.042,0.061-1.048,1.507-1.981,2.19l-0.072,0.053l-0.418-0.031l0.318,0.186l-0.246,0.221
			c-0.129,0.116-0.76,0.676-1.075,0.852l-0.221,0.182c-0.156,0.129-3.642,2.984-5.69,3.323l0.14,0.147l-0.373,0.01l-0.506,0.108
			l0.053,0.207L8.316,17.125z"/>
		<path fill="#25A1D9" d="M20.851,6.762c0,0-0.182,1.293-1.221,2.612l-0.634,0.157l0.417,0.139c0,0-1.014,1.466-1.925,2.133
			L16.12,11.7l0.931,0.546c0,0-0.793,0.711-1.068,0.84l-0.436,0.14l0.216,0.047c0,0-4.26,3.511-6.078,3.29l0.132,0.139l-0.345,0.009
			l0.115,0.068l-0.396,0.085l0.029,0.114l-0.605-0.064l0.146-0.601l0.05,0.179l0.085-0.285l0.063,0.195l0.128-0.445l0.103,0.228
			c0,0,0.338-1.747,1.659-3.121l0.068,0.639l0.148-1.058c0,0,2.001-2.225,5.642-4.034L16.465,9.35l0.557-0.8
			C17.022,8.55,19.712,6.957,20.851,6.762z"/>
	</g>
	<g>
		<path fill="#D7993D" d="M10.084,17.309l0.837-1.565l0.005,0.265l0.114-0.188l0.01,0.173l0.149-0.252l0.039,0.226
			c0.359-0.539,1.004-1.341,1.964-1.932l0.143-0.088l0.08-0.193l0.062-0.041c0.096-0.064,2.395-1.568,6.089-2.347l0.565-0.119
			l-0.048,0.075c0.659-0.181,2.51-0.665,3.501-0.665c0.073,0,0.142,0.003,0.204,0.008l0.33,0.028L24.001,11
			c-0.02,0.048-0.504,1.19-1.781,2.161l-0.066,0.05l-0.006,0l-0.18,0.155c-0.052,0.045-1.294,1.112-2.294,1.51l-0.083,0.033
			l-0.303-0.103l0.206,0.205L19.2,15.163c-0.143,0.074-0.839,0.43-1.166,0.516l-0.239,0.111c-0.147,0.068-3.621,1.676-5.601,1.676h0
			c-0.09,0-0.176-0.003-0.258-0.01l0.094,0.17l-0.374-0.086l-0.46-0.02l-0.001,0.205L10.084,17.309z"/>
		<path fill="#E0A64B" d="M23.778,10.907c0,0-0.464,1.119-1.704,2.062l-0.606-0.007l0.342,0.221c0,0-1.252,1.081-2.225,1.468
			l-1.205-0.41l0.709,0.706c0,0-0.877,0.454-1.154,0.506l-0.425,0.025l0.183,0.093c0,0-4.643,2.163-6.225,1.542l0.087,0.156
			l-0.312-0.072l0.088,0.088l-0.376-0.016l0,0.109l-0.528-0.198l0.271-0.506l0.003,0.172l0.143-0.236l0.011,0.19l0.218-0.37
			l0.039,0.228c0,0,0.71-1.491,2.216-2.417l-0.087,0.59l0.379-0.916c0,0,2.314-1.533,6.006-2.312l-0.389,0.607l0.687-0.589
			C19.923,11.622,22.709,10.817,23.778,10.907z"/>
	</g>
	<g>
		<path fill="#C96680" d="M13.915,18.355l0.907-1.407l-0.015,0.234l0.1-0.139l-0.003,0.14l0.125-0.178l0.018,0.199
			c0.343-0.418,0.908-0.988,1.69-1.385l0.111-0.057l0.078-0.152l0.065-0.036c0.084-0.046,2.08-1.131,5.174-1.525l0.573-0.073
			l-0.039,0.051c0.557-0.103,1.741-0.303,2.537-0.303c0.182,0,0.332,0.01,0.457,0.031l0.326,0.055l-0.151,0.294
			c-0.02,0.039-0.499,0.954-1.623,1.673l-0.07,0.045l-0.004,0l-0.145,0.106c-0.046,0.034-1.143,0.831-1.998,1.093l-0.085,0.026
			l-0.088-0.038l0.074,0.087l-0.305,0.128c-0.123,0.051-0.715,0.296-0.998,0.348l-0.2,0.074c-0.112,0.041-2.763,1.016-4.436,1.016h0
			c-0.158,0-0.302-0.008-0.433-0.025l0.073,0.162l-0.388-0.124l-0.329-0.041L14.9,18.818L13.915,18.355z"/>
		<path fill="#CD708E" d="M25.655,13.995c0,0-0.456,0.888-1.538,1.58l-0.497-0.046l0.266,0.205c0,0-1.1,0.804-1.926,1.057
			l-0.962-0.417l0.535,0.628c0,0-0.751,0.314-0.982,0.339l-0.35-0.008l0.144,0.088c0,0-3.959,1.466-5.216,0.85l0.061,0.134
			l-0.251-0.08l0.066,0.078l-0.308-0.039l-0.008,0.09l-0.42-0.198l0.256-0.397l-0.009,0.142l0.133-0.184l-0.004,0.157l0.204-0.289
			l0.017,0.19c0,0,0.683-1.177,1.982-1.837l-0.111,0.478l0.373-0.727c0,0,2.004-1.105,5.088-1.497l-0.36,0.472l0.604-0.438
			C22.441,14.324,24.783,13.849,25.655,13.995z"/>
	</g>
	<g>
		<path fill="#9B2128" d="M18.688,20.042c-0.757,0-1.339-0.067-1.758-0.204l0.011,0.049l0.019,0.035l-0.012-0.004l0.02,0.088
			L16.602,19.8l-0.26-0.088l-0.05,0.17l-0.837-0.624l1.139-1.166l-0.057,0.213l0.11-0.101l-0.028,0.122l0.134-0.126l-0.021,0.187
			c0.383-0.305,0.974-0.688,1.715-0.892l0.102-0.028l0.096-0.121l0.071-0.022c0.06-0.019,1.505-0.462,3.69-0.462
			c0.394,0,0.792,0.015,1.184,0.044l0.576,0.043l-0.04,0.035c0.653,0.014,2.053,0.07,2.654,0.301l0.309,0.119l-0.207,0.258
			c-0.025,0.031-0.619,0.761-1.751,1.197l-0.078,0.03l-0.003-0.001l-0.14,0.064c-0.047,0.022-1.168,0.532-1.977,0.61l-0.087,0.008
			l0.018,0.033l-0.325,0.064c-0.067,0.013-0.662,0.129-0.931,0.129c-0.007,0-0.014,0-0.021,0l-0.188,0.029
			C21.343,19.836,19.999,20.041,18.688,20.042z"/>
		<path fill="#B3292E" d="M26.693,17.511c0,0-0.565,0.705-1.65,1.123l-0.433-0.131l0.199,0.23c0,0-1.122,0.514-1.9,0.589
			l-0.778-0.544l0.361,0.654c0,0-0.723,0.143-0.932,0.123l-0.309-0.071l0.112,0.104c0,0-3.777,0.585-4.781-0.189l0.03,0.13
			l-0.208-0.116l0.045,0.081l-0.266-0.09l-0.023,0.078l-0.337-0.252l0.299-0.306l-0.033,0.124l0.151-0.139l-0.032,0.138l0.233-0.22
			L16.421,19c0,0,0.819-0.921,2.091-1.271l-0.185,0.404l0.462-0.577c0,0,1.977-0.618,4.784-0.408l-0.405,0.354l0.615-0.279
			C23.782,17.222,25.946,17.224,26.693,17.511z"/>
	</g>
	<g>
		<path fill="#A69B85" d="M24.588,22.233c-0.421,0-1.016-0.026-1.464-0.148l-0.085-0.023l0.005,0.038l-0.326-0.055
			c-0.119-0.02-0.689-0.119-0.935-0.217l-0.188-0.04c-0.344-0.073-3.049-0.668-4.183-1.578l-0.007,0.052l0.006,0.039l-0.01-0.008
			l-0.012,0.089l-0.269-0.32l-0.212-0.174l-0.107,0.141l-0.561-0.88l1.478-0.686l-0.129,0.179l0.139-0.056l-0.069,0.104l0.17-0.07
			l-0.086,0.167c0.384-0.123,0.917-0.245,1.52-0.245c0.135,0,0.269,0.006,0.4,0.019l0.105,0.01l0.133-0.079l0.074,0.004
			c0.086,0.005,2.143,0.14,4.706,1.337l0.523,0.244l-0.05,0.019c0.605,0.244,1.895,0.794,2.375,1.222l0.247,0.22l-0.285,0.168
			c-0.034,0.02-0.849,0.492-2.062,0.499l-0.083,0l-0.002-0.002l-0.153,0.01C25.179,22.217,24.932,22.233,24.588,22.233z"/>
		<path fill="#BFB399" d="M27.368,21.5c0,0-0.779,0.459-1.941,0.465l-0.358-0.276l0.105,0.285c0,0-1.231,0.083-1.985-0.123
			l-0.535-0.785l0.106,0.739c0,0-0.727-0.123-0.915-0.216l-0.264-0.176l0.068,0.137c0,0-3.738-0.793-4.403-1.872l-0.018,0.132
			l-0.153-0.183l0.013,0.092l-0.217-0.178l-0.049,0.065l-0.226-0.355l0.388-0.18l-0.075,0.104l0.191-0.076l-0.078,0.118l0.296-0.123
			l-0.079,0.154c0,0,1.092-0.571,2.406-0.447l-0.317,0.312l0.637-0.376c0,0,2.068,0.124,4.618,1.315l-0.504,0.187l0.674-0.043
			C24.748,20.197,26.771,20.967,27.368,21.5z"/>
	</g>
	<g>
		<path fill="#925F9D" d="M25.47,26.143c-0.392,0-1.001-0.056-1.681-0.32l-0.077-0.03l-0.001-0.002l-0.147-0.047
			c-0.05-0.016-1.221-0.394-1.872-0.881l-0.07-0.052l-0.009,0.037l-0.283-0.171c-0.103-0.062-0.596-0.364-0.789-0.545l-0.16-0.106
			c-0.293-0.195-2.589-1.743-3.309-3.007l-0.026,0.046l-0.009,0.039l-0.006-0.011l-0.044,0.078l-0.132-0.396l-0.133-0.24
			l-0.152,0.092l-0.198-1.025l1.627-0.094l-0.186,0.119l0.15-0.001l-0.103,0.071l0.184-0.003l-0.142,0.125
			c0.488,0.033,1.186,0.148,1.87,0.495l0.094,0.048l0.153-0.024l0.067,0.031c0.078,0.037,1.941,0.919,3.884,2.975l0.396,0.42
			l-0.054-0.001c0.473,0.45,1.47,1.435,1.758,2.01l0.148,0.296l-0.327,0.051C25.884,26.119,25.726,26.143,25.47,26.143z"/>
		<path fill="#9E6CA4" d="M25.853,25.879c0,0-0.893,0.14-1.976-0.282l-0.232-0.388l-0.008,0.304c0,0-1.175-0.376-1.801-0.844
			l-0.208-0.926l-0.174,0.726c0,0-0.631-0.382-0.772-0.538l-0.181-0.261l0.012,0.152c0,0-3.184-2.113-3.405-3.361l-0.066,0.116
			l-0.076-0.226l-0.021,0.09l-0.136-0.246l-0.07,0.042l-0.08-0.413l0.428-0.025l-0.109,0.069l0.206-0.001l-0.117,0.081l0.32-0.005
			l-0.13,0.114c0,0,1.225-0.129,2.401,0.469l-0.409,0.174l0.73-0.115c0,0,1.877,0.876,3.81,2.922l-0.538-0.011l0.642,0.208
			C23.897,23.704,25.494,25.164,25.853,25.879z"/>
	</g>
	<path fill="#FFFFFF" stroke="#CECECE" stroke-width="0.75" stroke-miterlimit="10" d="M1.003,15.509c0,0,12.622-0.306,17.173,4.207
		v0.88c0,0-1.377-1.798-17.173-1.492C1.003,19.105,0.277,17.479,1.003,15.509z"/>
	<path fill="#221E1F" d="M1.01,16.878c0,0,0.018,0,0.054,0c0.035,0,0.087-0.003,0.156,0.007c0.069,0.006,0.152,0.028,0.245,0.069
		c0.093,0.042,0.184,0.117,0.281,0.198c0.097,0.081,0.209,0.16,0.349,0.207c0.139,0.047,0.299,0.066,0.472,0.065
		c0.021-0.002,0.041-0.004,0.062-0.006c0.024-0.001,0.041-0.008,0.061-0.012c0.037-0.007,0.08-0.025,0.121-0.039
		c0.083-0.035,0.166-0.078,0.251-0.126c0.171-0.096,0.348-0.211,0.556-0.303c0.103-0.047,0.216-0.086,0.338-0.107
		c0.031-0.004,0.061-0.012,0.093-0.012l0.048-0.003l0.024-0.001l0.012-0.001l0.006,0c-0.004,0,0.013,0,0.013,0
		c0.029,0.002,0.058,0.005,0.087,0.007c0.033,0.006,0.068,0.014,0.103,0.022c0.128,0.035,0.241,0.093,0.351,0.154
		c0.11,0.061,0.214,0.128,0.32,0.192c0.105,0.064,0.212,0.125,0.321,0.174c0.109,0.049,0.221,0.084,0.331,0.089
		c0.215,0.011,0.448-0.109,0.689-0.231c0.121-0.062,0.246-0.127,0.382-0.183c0.136-0.055,0.285-0.103,0.451-0.108l0.063,0l0.015,0
		l0.008,0l0.016,0.002l0.026,0.004l0.052,0.007c0.017,0.002,0.042,0.01,0.063,0.015l0.065,0.018l0.056,0.021
		c0.038,0.014,0.074,0.03,0.108,0.048c0.14,0.069,0.262,0.153,0.381,0.235c0.119,0.082,0.233,0.164,0.35,0.232
		c0.116,0.068,0.234,0.122,0.349,0.14c0.12,0.019,0.232-0.001,0.361-0.04c0.127-0.039,0.256-0.096,0.388-0.155
		c0.133-0.058,0.27-0.118,0.42-0.166c0.075-0.024,0.154-0.043,0.236-0.055c0.041-0.006,0.084-0.007,0.127-0.01
		c0.021,0,0.044,0.002,0.065,0.003l0.033,0.002l0.016,0.001l0.008,0.001c0.023,0.003,0.01,0.002,0.017,0.003l0.053,0.011
		c0.019,0.004,0.033,0.005,0.057,0.014l0.066,0.022c0.022,0.007,0.043,0.015,0.061,0.024c0.076,0.033,0.146,0.072,0.211,0.114
		c0.131,0.084,0.246,0.178,0.357,0.267c0.111,0.089,0.219,0.176,0.329,0.246c0.108,0.071,0.223,0.123,0.327,0.136
		c0.236,0.031,0.491-0.061,0.749-0.146c0.129-0.043,0.262-0.088,0.402-0.119c0.139-0.031,0.291-0.049,0.445-0.019
		c0.144,0.027,0.288,0.103,0.397,0.183c0.113,0.082,0.209,0.172,0.299,0.262c0.179,0.179,0.338,0.362,0.516,0.481
		c0.022,0.017,0.045,0.027,0.067,0.041c0.022,0.014,0.045,0.023,0.068,0.032l0.017,0.007l0.009,0.004l0.004,0.002
		c-0.001,0,0.008,0.003-0.001,0l0.042,0.011c0.027,0.007,0.057,0.017,0.079,0.018c0.024,0.003,0.048,0.007,0.072,0.01
		c0.026,0.002,0.052,0.003,0.078,0.005c0.052,0.001,0.104,0.001,0.157-0.003c0.21-0.013,0.415-0.053,0.616-0.075
		c0.101-0.009,0.2-0.019,0.3-0.013c0.099,0.005,0.198,0.018,0.288,0.057l0.034,0.013l0.004,0.002
		c-0.002-0.001,0.007,0.003,0.007,0.004l0.007,0.004l0.014,0.008c0.019,0.011,0.037,0.022,0.056,0.033
		c0.037,0.024,0.075,0.055,0.109,0.082c0.064,0.059,0.12,0.121,0.166,0.186c0.093,0.128,0.158,0.255,0.216,0.369
		c0.056,0.114,0.106,0.216,0.149,0.305c0.044,0.088,0.086,0.16,0.124,0.216c0.038,0.056,0.07,0.097,0.096,0.121
		c0.024,0.025,0.037,0.039,0.037,0.039s-0.014-0.012-0.04-0.036c-0.027-0.022-0.063-0.061-0.106-0.115
		c-0.086-0.107-0.188-0.282-0.313-0.502c-0.064-0.109-0.137-0.229-0.232-0.344c-0.047-0.058-0.102-0.111-0.162-0.162
		c-0.032-0.022-0.06-0.044-0.096-0.065c-0.019-0.01-0.038-0.02-0.058-0.03L16.47,18.93l-0.007-0.004c-0.002-0.001,0.004,0.002,0,0
		l-0.003-0.001l-0.028-0.009c-0.074-0.028-0.16-0.036-0.249-0.035c-0.089-0.001-0.182,0.014-0.278,0.028
		c-0.193,0.031-0.396,0.08-0.622,0.104c-0.056,0.007-0.114,0.009-0.173,0.01c-0.03-0.001-0.06-0.001-0.09-0.002
		c-0.031-0.002-0.064-0.007-0.096-0.01c-0.034-0.003-0.059-0.011-0.087-0.016l-0.042-0.009c-0.013-0.004-0.007-0.002-0.011-0.003
		l-0.006-0.002l-0.012-0.004l-0.023-0.008c-0.031-0.011-0.062-0.022-0.09-0.038c-0.029-0.015-0.059-0.028-0.085-0.047
		c-0.111-0.066-0.206-0.149-0.297-0.234c-0.091-0.084-0.179-0.172-0.268-0.256c-0.089-0.084-0.18-0.164-0.278-0.23
		c-0.1-0.066-0.191-0.112-0.306-0.133c-0.104-0.017-0.222-0.003-0.342,0.026c-0.121,0.029-0.245,0.073-0.373,0.118
		c-0.128,0.046-0.261,0.094-0.403,0.13c-0.035,0.01-0.072,0.017-0.109,0.025c-0.036,0.009-0.075,0.013-0.114,0.018
		c-0.037,0.006-0.081,0.007-0.124,0.007c-0.047,0.002-0.078-0.003-0.113-0.006c-0.176-0.02-0.322-0.092-0.452-0.172
		c-0.13-0.082-0.245-0.174-0.357-0.262c-0.112-0.089-0.221-0.176-0.334-0.247c-0.056-0.036-0.113-0.066-0.169-0.091
		c-0.015-0.008-0.028-0.012-0.04-0.015l-0.037-0.013c-0.01-0.005-0.032-0.008-0.048-0.012l-0.053-0.011
		c0.003,0-0.015-0.003,0.004,0.001l-0.006,0l-0.011,0l-0.021-0.001c-0.014,0-0.028-0.002-0.043-0.002
		c-0.03,0.003-0.059,0.003-0.09,0.008c-0.061,0.01-0.124,0.025-0.187,0.045c-0.127,0.04-0.256,0.098-0.389,0.156
		c-0.134,0.058-0.271,0.118-0.422,0.164c-0.147,0.046-0.329,0.076-0.496,0.046c-0.172-0.029-0.319-0.102-0.451-0.179
		c-0.132-0.078-0.251-0.165-0.367-0.246c-0.116-0.081-0.229-0.158-0.343-0.216c-0.028-0.015-0.057-0.029-0.085-0.039L7.4,17.244
		l-0.037-0.011c-0.013-0.003-0.021-0.009-0.039-0.011l-0.052-0.008L7.245,17.21c0.002,0-0.014-0.002,0.003,0H7.243l-0.011,0
		l-0.043-0.001c-0.115,0.001-0.237,0.035-0.357,0.081c-0.121,0.047-0.241,0.106-0.364,0.166c-0.123,0.06-0.248,0.121-0.383,0.17
		c-0.035,0.011-0.068,0.024-0.104,0.034c-0.037,0.009-0.071,0.019-0.109,0.026c-0.039,0.005-0.084,0.012-0.119,0.014l-0.049,0
		l-0.025,0H5.673c0,0-0.021,0-0.015,0l-0.014-0.002c-0.152-0.012-0.29-0.062-0.413-0.122c-0.123-0.06-0.234-0.129-0.341-0.198
		c-0.211-0.137-0.408-0.277-0.606-0.343l-0.068-0.019c-0.029-0.004-0.058-0.007-0.086-0.011c-0.003,0,0.01,0.001,0.002,0H4.127
		l-0.01,0l-0.019,0l-0.038,0c-0.026-0.002-0.051,0.005-0.077,0.007c-0.102,0.013-0.203,0.043-0.3,0.082
		c-0.195,0.075-0.374,0.183-0.554,0.272c-0.09,0.045-0.181,0.086-0.274,0.12c-0.049,0.014-0.093,0.03-0.146,0.038
		c-0.025,0.004-0.052,0.01-0.073,0.01l-0.034,0.001l-0.017,0.001l-0.008,0l-0.009,0l-0.004,0c-0.181-0.009-0.353-0.037-0.501-0.099
		c-0.149-0.061-0.265-0.155-0.357-0.243c-0.093-0.088-0.174-0.164-0.258-0.212c-0.084-0.046-0.164-0.074-0.23-0.085
		c-0.066-0.015-0.119-0.017-0.154-0.019C1.029,16.879,1.01,16.878,1.01,16.878z"/>
	<circle fill="#734C29" cx="16.053" cy="20.023" r="1.973"/>
</g>
</svg>
